<?xml version="1.0" encoding="UTF-8" standalone="no"?>
<!-- Created with Inkscape (http://www.inkscape.org/) -->
<svg
   xmlns:dc="http://purl.org/dc/elements/1.1/"
   xmlns:cc="http://creativecommons.org/ns#"
   xmlns:rdf="http://www.w3.org/1999/02/22-rdf-syntax-ns#"
   xmlns:svg="http://www.w3.org/2000/svg"
   xmlns="http://www.w3.org/2000/svg"
   xmlns:xlink="http://www.w3.org/1999/xlink"
   xmlns:sodipodi="http://sodipodi.sourceforge.net/DTD/sodipodi-0.dtd"
   xmlns:inkscape="http://www.inkscape.org/namespaces/inkscape"
   width="297mm"
   height="210mm"
   id="svg2438"
   sodipodi:version="0.32"
   inkscape:version="0.46"
   sodipodi:docname="sorlo_d2_pied.svg"
   inkscape:output_extension="org.inkscape.output.svg.inkscape"
   inkscape:export-filename="/home/laurence/programation/jeu video/sorlo/sorlo_g2_marche.png"
   inkscape:export-xdpi="31.298321"
   inkscape:export-ydpi="31.298321"
   version="1.0">
  <defs
     id="defs2440">
    <linearGradient
       id="linearGradient3268">
      <stop
         id="stop3270"
         offset="0"
         style="stop-color:#ffffff;stop-opacity:1;" />
      <stop
         style="stop-color:#0f1c29;stop-opacity:1;"
         offset="1"
         id="stop3272" />
    </linearGradient>
    <linearGradient
       id="linearGradient3254">
      <stop
         id="stop3256"
         offset="0"
         style="stop-color:#376e83;stop-opacity:1;" />
      <stop
         style="stop-color:#23313e;stop-opacity:1;"
         offset="1"
         id="stop3258" />
    </linearGradient>
    <linearGradient
       id="linearGradient3284">
      <stop
         style="stop-color:#2c5adb;stop-opacity:1;"
         offset="0"
         id="stop3286" />
      <stop
         id="stop3292"
         offset="1"
         style="stop-color:#020130;stop-opacity:1;" />
    </linearGradient>
    <radialGradient
       inkscape:collect="always"
       xlink:href="#linearGradient3284"
       id="radialGradient3290"
       cx="979.66461"
       cy="534.93903"
       fx="979.66461"
       fy="534.93903"
       r="59.076111"
       gradientTransform="matrix(-1.3025683,-0.3520824,-0.2978999,1.1021137,1646.0821,93.288796)"
       gradientUnits="userSpaceOnUse" />
    <linearGradient
       id="linearGradient3344">
      <stop
         style="stop-color:#a36329;stop-opacity:1;"
         offset="0"
         id="stop3346" />
      <stop
         style="stop-color:#4d2f1b;stop-opacity:1;"
         offset="1"
         id="stop3348" />
    </linearGradient>
    <radialGradient
       inkscape:collect="always"
       xlink:href="#linearGradient3344"
       id="radialGradient3352"
       cx="947.99762"
       cy="614.91156"
       fx="947.99762"
       fy="614.91156"
       r="69.041389"
       gradientTransform="matrix(-1.3416319,-0.6538745,0.3230484,1.300757,1328.8536,245.47723)"
       gradientUnits="userSpaceOnUse" />
    <linearGradient
       id="linearGradient3392">
      <stop
         style="stop-color:#e3c5b2;stop-opacity:1;"
         offset="0"
         id="stop3394" />
      <stop
         style="stop-color:#d08858;stop-opacity:1;"
         offset="1"
         id="stop3396" />
    </linearGradient>
    <linearGradient
       inkscape:collect="always"
       xlink:href="#linearGradient3392"
       id="linearGradient3398"
       x1="948.45642"
       y1="601.04523"
       x2="983.55188"
       y2="601.04523"
       gradientUnits="userSpaceOnUse"
       gradientTransform="matrix(-1.2693001,0,0,0.9975424,1451.0797,-182.97213)" />
    <linearGradient
       id="linearGradient3306">
      <stop
         style="stop-color:#6fc5e8;stop-opacity:1;"
         offset="0"
         id="stop3308" />
      <stop
         id="stop3314"
         offset="1"
         style="stop-color:#4b84bc;stop-opacity:1;" />
    </linearGradient>
    <radialGradient
       inkscape:collect="always"
       xlink:href="#linearGradient3306"
       id="radialGradient3312"
       cx="969.97235"
       cy="591.58643"
       fx="969.97235"
       fy="591.58643"
       r="15.4031"
       gradientTransform="matrix(-1.4796314,0,0,1.7419518,1652.7613,-625.02282)"
       gradientUnits="userSpaceOnUse"
       spreadMethod="pad" />
    <inkscape:perspective
       sodipodi:type="inkscape:persp3d"
       inkscape:vp_x="0 : 372.04724 : 1"
       inkscape:vp_y="0 : 1000 : 0"
       inkscape:vp_z="1052.3622 : 372.04724 : 1"
       inkscape:persp3d-origin="526.18109 : 248.03149 : 1"
       id="perspective2447" />
    <radialGradient
       inkscape:collect="always"
       xlink:href="#linearGradient3284"
       id="radialGradient2476"
       gradientUnits="userSpaceOnUse"
       gradientTransform="matrix(-1.2334466,0,0,0.9026412,1437.7381,-129.95098)"
       cx="979.66461"
       cy="534.93903"
       fx="979.66461"
       fy="534.93903"
       r="59.076111" />
    <linearGradient
       inkscape:collect="always"
       xlink:href="#linearGradient3392"
       id="linearGradient2478"
       gradientUnits="userSpaceOnUse"
       x1="948.45642"
       y1="601.04523"
       x2="983.55188"
       y2="601.04523"
       gradientTransform="matrix(-1.5214036,0,0,1.4403713,1700.1368,-428.12036)" />
    <linearGradient
       inkscape:collect="always"
       xlink:href="#linearGradient3392"
       id="linearGradient2480"
       gradientUnits="userSpaceOnUse"
       x1="948.45642"
       y1="601.04523"
       x2="983.55188"
       y2="601.04523"
       gradientTransform="matrix(1.6334066,0,0,0.9930531,-1071.1041,9.2964588)" />
    <inkscape:perspective
       id="perspective2416"
       inkscape:persp3d-origin="372.04724 : 350.78739 : 1"
       inkscape:vp_z="744.09448 : 526.18109 : 1"
       inkscape:vp_y="0 : 1000 : 0"
       inkscape:vp_x="0 : 526.18109 : 1"
       sodipodi:type="inkscape:persp3d" />
    <inkscape:perspective
       id="perspective2453"
       inkscape:persp3d-origin="372.04724 : 350.78739 : 1"
       inkscape:vp_z="744.09448 : 526.18109 : 1"
       inkscape:vp_y="0 : 1000 : 0"
       inkscape:vp_x="0 : 526.18109 : 1"
       sodipodi:type="inkscape:persp3d" />
    <radialGradient
       inkscape:collect="always"
       xlink:href="#linearGradient3254"
       id="radialGradient3260"
       gradientUnits="userSpaceOnUse"
       gradientTransform="matrix(-1.4796314,0,0,1.7419518,1653.1883,-626.4045)"
       spreadMethod="pad"
       cx="969.97235"
       cy="591.58643"
       fx="969.97235"
       fy="591.58643"
       r="15.4031" />
    <radialGradient
       inkscape:collect="always"
       xlink:href="#linearGradient3268"
       id="radialGradient3266"
       cx="948.12445"
       cy="533.30597"
       fx="948.12445"
       fy="533.30597"
       r="2.915092"
       gradientTransform="matrix(0.5477489,0.7554252,-0.5090589,0.5943952,701.1884,-500.4227)"
       gradientUnits="userSpaceOnUse" />
    <radialGradient
       inkscape:collect="always"
       xlink:href="#linearGradient3306"
       id="radialGradient3280"
       cx="506.75427"
       cy="612.61304"
       fx="506.75427"
       fy="612.61304"
       r="75.660156"
       gradientTransform="matrix(-0.9995026,0,0,0.7497184,730.25614,-37.634464)"
       gradientUnits="userSpaceOnUse" />
    <linearGradient
       inkscape:collect="always"
       xlink:href="#linearGradient3392"
       id="linearGradient3285"
       gradientUnits="userSpaceOnUse"
       gradientTransform="matrix(-1.6334066,0,0,0.9930531,1800.4695,-181.89894)"
       x1="948.45642"
       y1="601.04523"
       x2="983.55188"
       y2="601.04523" />
    <radialGradient
       inkscape:collect="always"
       xlink:href="#linearGradient3284"
       id="radialGradient2597"
       gradientUnits="userSpaceOnUse"
       gradientTransform="matrix(1.3025683,-0.3520824,0.2978999,1.1021137,-995.53599,100.60959)"
       cx="979.66461"
       cy="534.93903"
       fx="979.66461"
       fy="534.93903"
       r="59.076111" />
    <linearGradient
       inkscape:collect="always"
       xlink:href="#linearGradient3392"
       id="linearGradient2633"
       gradientUnits="userSpaceOnUse"
       gradientTransform="matrix(1.6334066,0,0,0.9930531,-1404.4964,-182.02267)"
       x1="948.45642"
       y1="601.04523"
       x2="983.55188"
       y2="601.04523" />
    <radialGradient
       inkscape:collect="always"
       xlink:href="#linearGradient3284"
       id="radialGradient2635"
       gradientUnits="userSpaceOnUse"
       gradientTransform="matrix(1.2334466,0,0,0.9026412,-1041.765,-130.07471)"
       cx="979.66461"
       cy="534.93903"
       fx="979.66461"
       fy="534.93903"
       r="59.076111" />
    <linearGradient
       inkscape:collect="always"
       xlink:href="#linearGradient3392"
       id="linearGradient2637"
       gradientUnits="userSpaceOnUse"
       gradientTransform="matrix(1.5214036,0,0,1.4403713,-1304.1636,-428.24409)"
       x1="948.45642"
       y1="601.04523"
       x2="983.55188"
       y2="601.04523" />
    <radialGradient
       inkscape:collect="always"
       xlink:href="#linearGradient3284"
       id="radialGradient2639"
       gradientUnits="userSpaceOnUse"
       gradientTransform="matrix(1.3025683,-0.3520824,0.2978999,1.1021137,-1250.1089,93.165062)"
       cx="979.66461"
       cy="534.93903"
       fx="979.66461"
       fy="534.93903"
       r="59.076111" />
    <radialGradient
       inkscape:collect="always"
       xlink:href="#linearGradient3268"
       id="radialGradient2641"
       gradientUnits="userSpaceOnUse"
       gradientTransform="matrix(0.5477489,0.7554252,-0.5090589,0.5943952,701.1884,-500.4227)"
       cx="948.12445"
       cy="533.30597"
       fx="948.12445"
       fy="533.30597"
       r="2.915092" />
    <radialGradient
       inkscape:collect="always"
       xlink:href="#linearGradient3306"
       id="radialGradient2643"
       gradientUnits="userSpaceOnUse"
       gradientTransform="matrix(0.9995026,0,0,0.7497184,-334.28299,-37.758198)"
       cx="506.75427"
       cy="612.61304"
       fx="506.75427"
       fy="612.61304"
       r="75.660156" />
    <radialGradient
       inkscape:collect="always"
       xlink:href="#linearGradient3344"
       id="radialGradient2645"
       gradientUnits="userSpaceOnUse"
       gradientTransform="matrix(1.3416319,-0.6538745,-0.3230484,1.300757,-932.88043,245.3535)"
       cx="947.99762"
       cy="614.91156"
       fx="947.99762"
       fy="614.91156"
       r="69.041389" />
    <radialGradient
       inkscape:collect="always"
       xlink:href="#linearGradient3254"
       id="radialGradient2647"
       gradientUnits="userSpaceOnUse"
       gradientTransform="matrix(1.4796314,0,0,1.7419518,-1257.2151,-626.52823)"
       spreadMethod="pad"
       cx="969.97235"
       cy="591.58643"
       fx="969.97235"
       fy="591.58643"
       r="15.4031" />
    <linearGradient
       inkscape:collect="always"
       xlink:href="#linearGradient3392"
       id="linearGradient2649"
       gradientUnits="userSpaceOnUse"
       gradientTransform="matrix(1.2693001,0,0,0.9975424,-1055.1065,-183.09586)"
       x1="948.45642"
       y1="601.04523"
       x2="983.55188"
       y2="601.04523" />
    <radialGradient
       inkscape:collect="always"
       xlink:href="#linearGradient3306"
       id="radialGradient2651"
       gradientUnits="userSpaceOnUse"
       gradientTransform="matrix(1.4796314,0,0,1.7419518,-1256.7881,-625.14655)"
       spreadMethod="pad"
       cx="969.97235"
       cy="591.58643"
       fx="969.97235"
       fy="591.58643"
       r="15.4031" />
    <linearGradient
       inkscape:collect="always"
       xlink:href="#linearGradient3392"
       id="linearGradient2535"
       gradientUnits="userSpaceOnUse"
       gradientTransform="matrix(-1.6334066,0,0,0.9930531,2146.8746,-185.2957)"
       x1="948.45642"
       y1="601.04523"
       x2="983.55188"
       y2="601.04523" />
    <radialGradient
       inkscape:collect="always"
       xlink:href="#linearGradient3284"
       id="radialGradient2537"
       gradientUnits="userSpaceOnUse"
       gradientTransform="matrix(-1.1468034,-0.4541281,-0.3323327,0.8392354,1909.4927,351.06325)"
       cx="979.66461"
       cy="534.93903"
       fx="979.66461"
       fy="534.93903"
       r="59.076111" />
    <linearGradient
       inkscape:collect="always"
       xlink:href="#linearGradient3392"
       id="linearGradient2539"
       gradientUnits="userSpaceOnUse"
       gradientTransform="matrix(-1.4601986,-0.4271872,-0.4044345,1.3824262,2239.0624,19.034116)"
       x1="948.45642"
       y1="601.04523"
       x2="983.55188"
       y2="601.04523" />
    <radialGradient
       inkscape:collect="always"
       xlink:href="#linearGradient3284"
       id="radialGradient2541"
       gradientUnits="userSpaceOnUse"
       gradientTransform="matrix(-1.0814407,-0.8069276,-0.6827482,0.9150157,2021.0096,635.32928)"
       cx="979.66461"
       cy="534.93903"
       fx="979.66461"
       fy="534.93903"
       r="59.076111" />
    <radialGradient
       inkscape:collect="always"
       xlink:href="#linearGradient3268"
       id="radialGradient2543"
       gradientUnits="userSpaceOnUse"
       gradientTransform="matrix(0.5477489,0.7554252,-0.5090589,0.5943952,701.1884,-500.4227)"
       cx="948.12445"
       cy="533.30597"
       fx="948.12445"
       fy="533.30597"
       r="2.915092" />
    <radialGradient
       inkscape:collect="always"
       xlink:href="#linearGradient3306"
       id="radialGradient2545"
       gradientUnits="userSpaceOnUse"
       gradientTransform="matrix(-0.9592933,-0.2806452,-0.2105096,0.7195578,1196.6635,120.92932)"
       cx="506.75427"
       cy="612.61304"
       fx="506.75427"
       fy="612.61304"
       r="75.660156" />
    <radialGradient
       inkscape:collect="always"
       xlink:href="#linearGradient3344"
       id="radialGradient2548"
       gradientUnits="userSpaceOnUse"
       gradientTransform="matrix(-0.1718301,-1.4825661,-0.921871,0.9728733,1285.2537,1236.2171)"
       cx="947.99762"
       cy="614.91156"
       fx="947.99762"
       fy="614.91156"
       r="69.041389" />
    <radialGradient
       inkscape:collect="always"
       xlink:href="#linearGradient3254"
       id="radialGradient2550"
       gradientUnits="userSpaceOnUse"
       gradientTransform="matrix(-0.5672312,-1.3665861,-1.608865,0.6677943,2074.2699,1328.0893)"
       spreadMethod="pad"
       cx="969.97235"
       cy="591.58643"
       fx="969.97235"
       fy="591.58643"
       r="15.4031" />
    <linearGradient
       inkscape:collect="always"
       xlink:href="#linearGradient3392"
       id="linearGradient2552"
       gradientUnits="userSpaceOnUse"
       gradientTransform="matrix(-0.4865986,-1.1723244,-0.9213292,0.3824176,1587.2358,1311.4162)"
       x1="948.45642"
       y1="601.04523"
       x2="983.55188"
       y2="601.04523" />
    <radialGradient
       inkscape:collect="always"
       xlink:href="#linearGradient3306"
       id="radialGradient2554"
       gradientUnits="userSpaceOnUse"
       gradientTransform="matrix(-0.5672312,-1.3665861,-1.608865,0.6677943,2072.8301,1328.2246)"
       spreadMethod="pad"
       cx="969.97235"
       cy="591.58643"
       fx="969.97235"
       fy="591.58643"
       r="15.4031" />
    <linearGradient
       inkscape:collect="always"
       xlink:href="#linearGradient3392"
       id="linearGradient2578"
       gradientUnits="userSpaceOnUse"
       gradientTransform="matrix(-1.6334066,0,0,0.9930531,2505.8858,-183.8227)"
       x1="948.45642"
       y1="601.04523"
       x2="983.55188"
       y2="601.04523" />
    <radialGradient
       inkscape:collect="always"
       xlink:href="#linearGradient3284"
       id="radialGradient2580"
       gradientUnits="userSpaceOnUse"
       gradientTransform="matrix(-1.1567737,0.4280952,0.3132818,0.8465316,1883.3359,-521.81731)"
       cx="979.66461"
       cy="534.93903"
       fx="979.66461"
       fy="534.93903"
       r="59.076111" />
    <linearGradient
       inkscape:collect="always"
       xlink:href="#linearGradient3392"
       id="linearGradient2582"
       gradientUnits="userSpaceOnUse"
       gradientTransform="matrix(-1.4719295,0.384828,0.3643314,1.3935324,2140.9842,-775.48043)"
       x1="948.45642"
       y1="601.04523"
       x2="983.55188"
       y2="601.04523" />
    <radialGradient
       inkscape:collect="always"
       xlink:href="#linearGradient3284"
       id="radialGradient2584"
       gradientUnits="userSpaceOnUse"
       gradientTransform="matrix(-1.3437967,0.121889,0.1031312,1.1369975,2156.2091,-384.76485)"
       cx="979.66461"
       cy="534.93903"
       fx="979.66461"
       fy="534.93903"
       r="59.076111" />
    <radialGradient
       inkscape:collect="always"
       xlink:href="#linearGradient3268"
       id="radialGradient2586"
       gradientUnits="userSpaceOnUse"
       gradientTransform="matrix(0.5477489,0.7554252,-0.5090589,0.5943952,701.1884,-500.4227)"
       cx="948.12445"
       cy="533.30597"
       fx="948.12445"
       fy="533.30597"
       r="2.915092" />
    <radialGradient
       inkscape:collect="always"
       xlink:href="#linearGradient3306"
       id="radialGradient2588"
       gradientUnits="userSpaceOnUse"
       gradientTransform="matrix(0.9995026,0,0,0.7497184,-281.58104,-37.688755)"
       cx="506.75427"
       cy="612.61304"
       fx="506.75427"
       fy="612.61304"
       r="75.660156" />
    <radialGradient
       inkscape:collect="always"
       xlink:href="#linearGradient3344"
       id="radialGradient2591"
       gradientUnits="userSpaceOnUse"
       gradientTransform="matrix(1.3416319,-0.6538745,-0.3230484,1.300757,-880.17848,245.42294)"
       cx="947.99762"
       cy="614.91156"
       fx="947.99762"
       fy="614.91156"
       r="69.041389" />
    <radialGradient
       inkscape:collect="always"
       xlink:href="#linearGradient3254"
       id="radialGradient2593"
       gradientUnits="userSpaceOnUse"
       gradientTransform="matrix(1.4796314,0,0,1.7419518,-1204.5132,-626.45879)"
       spreadMethod="pad"
       cx="969.97235"
       cy="591.58643"
       fx="969.97235"
       fy="591.58643"
       r="15.4031" />
    <linearGradient
       inkscape:collect="always"
       xlink:href="#linearGradient3392"
       id="linearGradient2595"
       gradientUnits="userSpaceOnUse"
       gradientTransform="matrix(1.2693001,0,0,0.9975424,-1002.4046,-183.02642)"
       x1="948.45642"
       y1="601.04523"
       x2="983.55188"
       y2="601.04523" />
    <radialGradient
       inkscape:collect="always"
       xlink:href="#linearGradient3306"
       id="radialGradient2599"
       gradientUnits="userSpaceOnUse"
       gradientTransform="matrix(1.4796314,0,0,1.7419518,-1204.0862,-625.07711)"
       spreadMethod="pad"
       cx="969.97235"
       cy="591.58643"
       fx="969.97235"
       fy="591.58643"
       r="15.4031" />
    <linearGradient
       inkscape:collect="always"
       xlink:href="#linearGradient3392"
       id="linearGradient2603"
       gradientUnits="userSpaceOnUse"
       gradientTransform="matrix(-1.2590266,-1.04061,-0.6326538,0.7654434,2167.964,962.9683)"
       x1="948.45642"
       y1="601.04523"
       x2="983.55188"
       y2="601.04523" />
    <radialGradient
       inkscape:collect="always"
       xlink:href="#linearGradient3254"
       id="radialGradient3391"
       gradientUnits="userSpaceOnUse"
       gradientTransform="matrix(-0.9592933,-0.2806452,-0.2105096,0.7195578,1196.6635,120.92932)"
       cx="506.75427"
       cy="612.61304"
       fx="506.75427"
       fy="612.61304"
       r="75.660156" />
    <radialGradient
       inkscape:collect="always"
       xlink:href="#linearGradient3306"
       id="radialGradient3396"
       gradientUnits="userSpaceOnUse"
       gradientTransform="matrix(-0.9670001,0.2528169,0.1896358,0.7253385,1298.7024,-152.33925)"
       cx="506.75427"
       cy="612.61304"
       fx="506.75427"
       fy="612.61304"
       r="75.660156" />
    <linearGradient
       inkscape:collect="always"
       xlink:href="#linearGradient3392"
       id="linearGradient3401"
       gradientUnits="userSpaceOnUse"
       gradientTransform="matrix(1.1409805,1.1688373,-0.7106115,0.6936756,-303.68558,-1056.9449)"
       x1="948.45642"
       y1="601.04523"
       x2="983.55188"
       y2="601.04523" />
    <linearGradient
       inkscape:collect="always"
       xlink:href="#linearGradient3392"
       id="linearGradient3405"
       gradientUnits="userSpaceOnUse"
       gradientTransform="matrix(-1.21506,1.0916255,0.6636696,0.7387132,1729.2007,-1098.8789)"
       x1="948.45642"
       y1="601.04523"
       x2="983.55188"
       y2="601.04523" />
    <radialGradient
       inkscape:collect="always"
       xlink:href="#linearGradient3254"
       id="radialGradient3415"
       gradientUnits="userSpaceOnUse"
       gradientTransform="matrix(-0.7054163,1.3006527,1.5312424,0.8304777,707.00948,-1354.0753)"
       spreadMethod="pad"
       cx="969.97235"
       cy="591.58643"
       fx="969.97235"
       fy="591.58643"
       r="15.4031" />
    <linearGradient
       inkscape:collect="always"
       xlink:href="#linearGradient3392"
       id="linearGradient3417"
       gradientUnits="userSpaceOnUse"
       gradientTransform="matrix(-0.6051404,1.1157633,0.876878,0.4755795,1000.448,-965.00704)"
       x1="948.45642"
       y1="601.04523"
       x2="983.55188"
       y2="601.04523" />
    <radialGradient
       inkscape:collect="always"
       xlink:href="#linearGradient3306"
       id="radialGradient3419"
       gradientUnits="userSpaceOnUse"
       gradientTransform="matrix(-0.7054163,1.3006527,1.5312424,0.8304777,708.0204,-1353.0413)"
       spreadMethod="pad"
       cx="969.97235"
       cy="591.58643"
       fx="969.97235"
       fy="591.58643"
       r="15.4031" />
    <radialGradient
       inkscape:collect="always"
       xlink:href="#linearGradient3344"
       id="radialGradient3421"
       gradientUnits="userSpaceOnUse"
       gradientTransform="matrix(-1.4827746,0.1700232,0.9717492,0.9230563,1763.5785,-319.47028)"
       cx="947.99762"
       cy="614.91156"
       fx="947.99762"
       fy="614.91156"
       r="69.041389" />
    <radialGradient
       inkscape:collect="always"
       xlink:href="#linearGradient3254"
       id="radialGradient3425"
       gradientUnits="userSpaceOnUse"
       gradientTransform="matrix(-0.7304999,0.6821844,0.5117006,0.5479417,983.36197,-261.70864)"
       cx="506.75427"
       cy="612.61304"
       fx="506.75427"
       fy="612.61304"
       r="75.660156" />
  </defs>
  <sodipodi:namedview
     inkscape:document-units="mm"
     pagecolor="#ffffff"
     bordercolor="#666666"
     borderopacity="1.0"
     inkscape:pageopacity="0.0"
     inkscape:pageshadow="2"
     inkscape:zoom="0.70910507"
     inkscape:cx="497.73249"
     inkscape:cy="360.24752"
     inkscape:current-layer="layer6"
     id="namedview2442"
     showgrid="false"
     inkscape:window-width="1272"
     inkscape:window-height="844"
     inkscape:window-x="0"
     inkscape:window-y="24"
     showguides="true"
     inkscape:guide-bbox="true">
    <sodipodi:guide
       orientation="0,1"
       position="358.7963,73.611111"
       id="guide2422" />
    <sodipodi:guide
       orientation="0,1"
       position="293.91579,268.92966"
       id="guide3262" />
    <sodipodi:guide
       orientation="0,1"
       position="858.6367,513.96409"
       id="guide3677" />
    <sodipodi:guide
       orientation="0,1"
       position="559.0273,460.37542"
       id="guide3679" />
    <sodipodi:guide
       orientation="0,1"
       position="393.08334,417.27309"
       id="guide2694" />
  </sodipodi:namedview>
  <metadata
     id="metadata2444">
    <rdf:RDF>
      <cc:Work
         rdf:about="">
        <dc:format>image/svg+xml</dc:format>
        <dc:type
           rdf:resource="http://purl.org/dc/dcmitype/StillImage" />
      </cc:Work>
    </rdf:RDF>
  </metadata>
  <g
     inkscape:groupmode="layer"
     id="layer2"
     inkscape:label="cadre"
     style="display:none"
     sodipodi:insensitive="true">
    <rect
       style="opacity:0.70689655;fill:#ffeeaa;fill-opacity:1;fill-rule:evenodd;stroke:#192438;stroke-width:1.39495802;stroke-linecap:butt;stroke-linejoin:miter;marker:none;marker-start:none;marker-mid:none;marker-end:none;stroke-miterlimit:4;stroke-dasharray:none;stroke-dashoffset:0;stroke-opacity:1;visibility:visible;display:inline;overflow:visible;enable-background:accumulate"
       id="rect3231"
       width="192.51822"
       height="192.51822"
       x="820.60193"
       y="284.57034" />
    <rect
       style="opacity:0.70689655;fill:#ffeeaa;fill-opacity:1;fill-rule:evenodd;stroke:#192438;stroke-width:1.39495802;stroke-linecap:butt;stroke-linejoin:miter;marker:none;marker-start:none;marker-mid:none;marker-end:none;stroke-miterlimit:4;stroke-dasharray:none;stroke-dashoffset:0;stroke-opacity:1;visibility:visible;display:inline;overflow:visible;enable-background:accumulate"
       id="rect2830"
       width="192.51822"
       height="192.51822"
       x="582.8772"
       y="284.66425" />
    <rect
       style="opacity:0.70689655;fill:#ffeeaa;fill-opacity:1;fill-rule:evenodd;stroke:#192438;stroke-width:1.39495802;stroke-linecap:butt;stroke-linejoin:miter;marker:none;marker-start:none;marker-mid:none;marker-end:none;stroke-miterlimit:4;stroke-dasharray:none;stroke-dashoffset:0;stroke-opacity:1;visibility:visible;display:inline;overflow:visible;enable-background:accumulate"
       id="rect2832"
       width="192.51822"
       height="192.51822"
       x="323.71829"
       y="285.66455" />
    <rect
       style="opacity:0.70689655;fill:#ffeeaa;fill-opacity:1;fill-rule:evenodd;stroke:#192438;stroke-width:1.39495802;stroke-linecap:butt;stroke-linejoin:miter;marker:none;marker-start:none;marker-mid:none;marker-end:none;stroke-miterlimit:4;stroke-dasharray:none;stroke-dashoffset:0;stroke-opacity:1;visibility:visible;display:inline;overflow:visible;enable-background:accumulate"
       id="rect2834"
       width="192.51822"
       height="192.51822"
       x="62.185593"
       y="284.66425" />
  </g>
  <g
     inkscape:groupmode="layer"
     id="layer7"
     inkscape:label="lignes"
     style="display:none"
     sodipodi:insensitive="true">
    <path
       style="fill:#ff0000;fill-rule:evenodd;stroke:#000000;stroke-width:1px;stroke-linecap:butt;stroke-linejoin:miter;stroke-opacity:1"
       d="M 1015.1773,476.45142 L 1013.8074,281.93088 C 1013.8074,281.93088 845.31424,309.32814 716.54711,298.36924 C 587.77999,287.41033 489.12566,260.45854 250.7937,264.12266 C 29.179137,267.52977 12.397052,287.00103 4.2183512,284.66426 L 5.5882142,478.18277 C 5.5882142,478.18277 320.65671,484.67059 406.95808,468.23224 C 493.25945,451.79388 605.58821,425.76649 698.7389,439.46512 C 791.88958,453.16375 939.83479,478.18277 963.12246,478.18277 C 986.41018,478.18277 1017.917,477.82128 1015.1773,476.45142 z"
       id="path2886"
       sodipodi:nodetypes="ccssccsssc" />
  </g>
  <g
     inkscape:groupmode="layer"
     id="layer6"
     inkscape:label="baton"
     style="display:inline">
    <path
       style="fill:url(#radialGradient3352);fill-opacity:1;fill-rule:evenodd;stroke:#41211e;stroke-width:4.54476357;stroke-linecap:butt;stroke-linejoin:round;stroke-miterlimit:4;stroke-dasharray:none;stroke-opacity:1"
       d="M 319.65839,367.21634 C 326.98442,369.01113 331.43691,379.48392 329.7452,385.36027 C 285.0352,410.45589 246.87164,438.69901 197.62856,464.97365 C 191.62279,463.93964 192.57502,460.2271 191.95669,457.05415 C 232.11792,433.62476 288.3519,391.74697 319.65839,367.21634 z"
       id="path3282"
       sodipodi:nodetypes="ccccc"
       inkscape:export-filename="/home/laurence/jeu video/sorlo/sorlo_pied/sorlo_d2_pied.png"
       inkscape:export-xdpi="27.610001"
       inkscape:export-ydpi="27.610001" />
    <path
       style="fill:url(#radialGradient2548);fill-opacity:1;fill-rule:evenodd;stroke:#41211e;stroke-width:4.54476357;stroke-linecap:butt;stroke-linejoin:round;stroke-miterlimit:4;stroke-dasharray:none;stroke-opacity:1;display:inline"
       d="M 639.04549,451.54518 C 641.47982,458.68423 635.05496,468.07705 629.19281,469.8173 C 583.96485,445.66767 539.61158,428.72893 490.94837,401.39529 C 488.58429,395.77837 492.22507,394.58074 494.56522,392.35055 C 535.93901,413.56542 601.51386,438.38371 639.04549,451.54518 z"
       id="path2527"
       sodipodi:nodetypes="ccccc"
       inkscape:export-filename="/home/laurence/jeu video/sorlo/sorlo_pied/sorlo_d2_pied.png"
       inkscape:export-xdpi="27.610001"
       inkscape:export-ydpi="27.610001"
       inkscape:transform-center-x="-10.89895"
       inkscape:transform-center-y="20.296385" />
    <path
       style="fill:url(#radialGradient3421);fill-opacity:1;fill-rule:evenodd;stroke:#41211e;stroke-width:4.54476357;stroke-linecap:butt;stroke-linejoin:round;stroke-miterlimit:4;stroke-dasharray:none;stroke-opacity:1;display:inline"
       d="M 978.11935,325.78112 C 985.26137,323.35548 994.64635,329.7918 996.37945,335.65607 C 972.17469,380.85457 955.18195,425.18715 927.789,473.81701 C 922.16922,476.17425 920.976,472.532 918.74868,470.18915 C 940.01396,428.84125 964.91214,363.29668 978.11935,325.78112 z"
       id="path2570"
       sodipodi:nodetypes="ccccc"
       inkscape:export-filename="/home/laurence/jeu video/sorlo/sorlo_pied/sorlo_d2_pied.png"
       inkscape:export-xdpi="27.610001"
       inkscape:export-ydpi="27.610001"
       inkscape:transform-center-x="-57.337113"
       inkscape:transform-center-y="-21.407352" />
  </g>
  <g
     inkscape:groupmode="layer"
     id="layer8"
     inkscape:label="fond robe"
     style="display:inline">
    <path
       style="opacity:1;fill:url(#radialGradient3391);fill-opacity:1;fill-rule:evenodd;stroke:#214361;stroke-width:5.41417313;stroke-linecap:butt;stroke-linejoin:round;marker:none;marker-start:none;marker-mid:none;marker-end:none;stroke-miterlimit:4;stroke-dasharray:none;stroke-dashoffset:0;stroke-opacity:1;visibility:visible;display:inline;overflow:visible;enable-background:accumulate"
       d="M 636.88928,473.8332 L 506.80457,431.94927 C 506.22136,453.9771 527.05163,468.20902 553.29335,471.88244 C 579.53507,475.55586 578.00082,469.77052 636.88928,473.8332 z"
       id="path2619"
       sodipodi:nodetypes="cczc"
       inkscape:export-filename="/home/laurence/jeu video/sorlo/sorlo_pied/sorlo_d2_pied.png"
       inkscape:export-xdpi="27.610001"
       inkscape:export-ydpi="27.610001"
       inkscape:transform-center-x="9.7872905"
       inkscape:transform-center-y="31.58321" />
    <path
       style="opacity:1;fill:url(#radialGradient3425);fill-opacity:1;fill-rule:evenodd;stroke:#214361;stroke-width:5.41417313;stroke-linecap:butt;stroke-linejoin:round;marker:none;marker-start:none;marker-mid:none;marker-end:none;stroke-miterlimit:4;stroke-dasharray:none;stroke-dashoffset:0;stroke-opacity:1;visibility:visible;display:inline;overflow:visible;enable-background:accumulate"
       d="M 992.30906,410.73959 L 884.39873,472.87141 C 885.99781,479.84722 933.78474,472.18055 962.12601,460.66879 C 989.24553,447.06534 1008.4712,424.61311 992.30906,410.73959 z"
       id="path3423"
       sodipodi:nodetypes="cccc"
       inkscape:export-filename="/home/laurence/jeu video/sorlo/sorlo_pied/sorlo_d2_pied.png"
       inkscape:export-xdpi="27.610001"
       inkscape:export-ydpi="27.610001"
       inkscape:transform-center-x="-13.754095"
       inkscape:transform-center-y="19.227066" />
  </g>
  <g
     inkscape:groupmode="layer"
     id="layer3"
     inkscape:label="jambe"
     style="display:inline">
    <path
       style="opacity:1;fill:url(#linearGradient3285);fill-opacity:1;fill-rule:evenodd;stroke:#a8613b;stroke-width:3.5007875;stroke-linecap:butt;stroke-linejoin:round;marker:none;marker-start:none;marker-mid:none;marker-end:none;stroke-miterlimit:4;stroke-dasharray:none;stroke-dashoffset:0;stroke-opacity:1;visibility:visible;display:inline;overflow:visible;enable-background:accumulate"
       d="M 238.66611,453.02909 C 246.28533,460.556 258.70201,463.6698 261.39457,476.18277 L 188.01662,477.08858 C 187.84193,471.53032 197.68518,457.87806 197.30692,452.0374 C 196.37165,437.37029 196.23326,421.12364 216.08517,420.44765 C 231.48539,419.92325 236.37215,426.97393 238.87265,431.48685 C 243.56399,439.95391 239.10965,444.00877 238.66611,453.02909 z"
       id="path3278"
       sodipodi:nodetypes="cccsssc"
       inkscape:export-filename="/home/laurence/jeu video/sorlo/sorlo_pied/sorlo_d2_pied.png"
       inkscape:export-xdpi="27.610001"
       inkscape:export-ydpi="27.610001" />
    <path
       style="opacity:1;fill:url(#linearGradient2535);fill-opacity:1;fill-rule:evenodd;stroke:#a8613b;stroke-width:3.5007875;stroke-linecap:butt;stroke-linejoin:round;marker:none;marker-start:none;marker-mid:none;marker-end:none;stroke-miterlimit:4;stroke-dasharray:none;stroke-dashoffset:0;stroke-opacity:1;visibility:visible;display:inline;overflow:visible;enable-background:accumulate"
       d="M 585.07122,449.63233 C 592.69044,457.15924 605.10712,460.27304 607.79968,472.78601 L 534.42173,473.69182 C 534.24704,468.13356 544.09029,454.4813 543.71203,448.64064 C 542.77676,433.97353 542.63837,417.72688 562.49028,417.05089 C 577.8905,416.52649 582.77726,423.57717 585.27776,428.09009 C 589.9691,436.55715 585.51476,440.61201 585.07122,449.63233 z"
       id="path2513"
       sodipodi:nodetypes="cccsssc"
       inkscape:export-filename="/home/laurence/jeu video/sorlo/sorlo_pied/sorlo_d2_pied.png"
       inkscape:export-xdpi="27.610001"
       inkscape:export-ydpi="27.610001" />
    <path
       style="opacity:1;fill:url(#linearGradient2603);fill-opacity:1;fill-rule:evenodd;stroke:#a8613b;stroke-width:3.5007875;stroke-linecap:butt;stroke-linejoin:round;marker:none;marker-start:none;marker-mid:none;marker-end:none;stroke-miterlimit:4;stroke-dasharray:none;stroke-dashoffset:0;stroke-opacity:1;visibility:visible;display:inline;overflow:visible;enable-background:accumulate"
       d="M 555.68414,448.17107 C 556.76178,458.82685 579.47198,462.56208 573.57564,473.92243 C 538.93638,478.33783 529.31428,459.62872 509.20616,446.28386 C 512.61256,441.88828 521.74659,431.38829 527.06646,428.94794 C 541.35288,422.39444 534.09802,397.86047 560.35082,412.61669 C 573.78345,420.16693 567.88505,422.02367 566.93734,427.09524 C 565.15922,436.61039 561.77268,441.5008 555.68414,448.17107 z"
       id="path2601"
       sodipodi:nodetypes="cccsssc"
       inkscape:export-filename="/home/laurence/jeu video/sorlo/sorlo_pied/sorlo_d2_pied.png"
       inkscape:export-xdpi="27.610001"
       inkscape:export-ydpi="27.610001"
       inkscape:transform-center-x="20.062308"
       inkscape:transform-center-y="24.187543" />
    <path
       style="opacity:1;fill:url(#linearGradient2578);fill-opacity:1;fill-rule:evenodd;stroke:#a8613b;stroke-width:3.5007875;stroke-linecap:butt;stroke-linejoin:round;marker:none;marker-start:none;marker-mid:none;marker-end:none;stroke-miterlimit:4;stroke-dasharray:none;stroke-dashoffset:0;stroke-opacity:1;visibility:visible;display:inline;overflow:visible;enable-background:accumulate"
       d="M 944.08245,451.10533 C 951.70167,458.63224 964.11835,461.74604 966.81091,474.25901 L 893.43296,475.16482 C 893.25827,469.60656 903.10152,455.9543 902.72326,450.11364 C 901.78799,435.44653 901.6496,419.19988 921.50151,418.52389 C 936.90173,417.99949 941.78849,425.05017 944.28899,429.56309 C 948.98033,438.03015 944.52599,442.08501 944.08245,451.10533 z"
       id="path2556"
       sodipodi:nodetypes="cccsssc"
       inkscape:export-filename="/home/laurence/jeu video/sorlo/sorlo_pied/sorlo_d2_pied.png"
       inkscape:export-xdpi="27.610001"
       inkscape:export-ydpi="27.610001" />
    <path
       style="opacity:1;fill:url(#linearGradient3405);fill-opacity:1;fill-rule:evenodd;stroke:#a8613b;stroke-width:3.5007875;stroke-linecap:butt;stroke-linejoin:round;marker:none;marker-start:none;marker-mid:none;marker-end:none;stroke-miterlimit:4;stroke-dasharray:none;stroke-dashoffset:0;stroke-opacity:1;visibility:visible;display:inline;overflow:visible;enable-background:accumulate"
       d="M 982.04814,419.74733 C 992.74627,420.25444 999.79291,398.34439 1010.1584,405.85308 C 1009.4122,440.76464 989.48772,447.51961 973.3208,465.43757 C 969.47622,461.41964 960.43957,450.83573 958.81122,445.2139 C 954.4384,430.1166 929.10228,433.67043 947.57212,409.88345 C 957.02249,397.7125 957.98821,403.82036 962.86432,405.50633 C 972.01275,408.66953 976.34969,412.74086 982.04814,419.74733 z"
       id="path3403"
       sodipodi:nodetypes="cccsssc"
       inkscape:export-filename="/home/laurence/jeu video/sorlo/sorlo_pied/sorlo_d2_pied.png"
       inkscape:export-xdpi="27.610001"
       inkscape:export-ydpi="27.610001"
       inkscape:transform-center-x="-29.06791"
       inkscape:transform-center-y="13.825479" />
  </g>
  <g
     inkscape:groupmode="layer"
     id="layer10"
     inkscape:label="fond chapeau" />
  <g
     inkscape:groupmode="layer"
     id="layer5"
     inkscape:label="tête"
     style="display:inline">
    <path
       style="opacity:1;fill:url(#radialGradient2476);fill-opacity:1;fill-rule:evenodd;stroke:#192438;stroke-width:3.01181102;stroke-linecap:butt;stroke-linejoin:round;marker:none;marker-start:none;marker-mid:none;marker-end:none;stroke-miterlimit:4;stroke-dasharray:none;stroke-dashoffset:0;stroke-opacity:1;visibility:visible;display:inline;overflow:visible;enable-background:accumulate"
       d="M 320.77406,307.29818 C 272.17135,309.46795 189.51106,369.22752 159.31258,408.49006 C 178.35467,408.67659 286.63418,354.57514 320.77406,307.29818 z"
       id="path3272"
       sodipodi:nodetypes="ccc"
       inkscape:export-filename="/home/laurence/jeu video/sorlo/sorlo_pied/sorlo_d2_pied.png"
       inkscape:export-xdpi="27.610001"
       inkscape:export-ydpi="27.610001" />
    <path
       style="opacity:1;fill:url(#linearGradient2478);fill-opacity:1;fill-rule:evenodd;stroke:#a8613b;stroke-width:4.05481339;stroke-linecap:butt;stroke-linejoin:round;marker:none;marker-start:none;marker-mid:none;marker-end:none;stroke-miterlimit:4;stroke-dasharray:none;stroke-dashoffset:0;stroke-opacity:1;visibility:visible;display:inline;overflow:visible;enable-background:accumulate"
       d="M 251.91731,307.10993 C 239.61436,295.85492 211.79253,296.55925 199.69577,309.49761 C 187.52497,322.51519 186.10415,337.39527 190.85521,347.10967 C 203.85809,373.69642 251.62668,386.23741 262.32346,378.59792 C 266.31246,375.74903 269.19071,366.10505 269.60565,361.81793 C 286.25885,352.98148 273.71057,344.41325 269.49824,343.67814 C 269.98608,336.5311 261.94022,312.78803 251.91731,307.10993 z"
       id="path2492"
       sodipodi:nodetypes="csssccc"
       inkscape:export-filename="/home/laurence/jeu video/sorlo/sorlo_pied/sorlo_d2_pied.png"
       inkscape:export-xdpi="27.610001"
       inkscape:export-ydpi="27.610001" />
    <path
       style="opacity:1;fill:url(#radialGradient3290);fill-opacity:1;fill-rule:evenodd;stroke:#192438;stroke-width:5.86541891;stroke-linecap:butt;stroke-linejoin:round;stroke-miterlimit:4;stroke-dasharray:none;stroke-opacity:1"
       d="M 318.27719,306.22597 C 282.1823,312.15926 224.09871,339.60184 159.85518,407.29723 C 168.83403,395.93432 174.50343,369.99823 187.61379,351.11671 L 183.00147,332.45641 C 166.75253,353.78835 166.81753,367.704 154.34738,381.99104 C 150.66821,381.04376 148.41521,378.93149 144.45781,374.35465 C 173.24931,332.94998 157.86788,302.5783 186.05481,286.4423 C 237.51847,291.27425 242.48657,298.84617 263.96382,306.4468 C 278.37381,304.95695 294.98105,304.31601 318.27719,306.22597 z"
       id="path3270"
       sodipodi:nodetypes="ccccccccc"
       inkscape:export-filename="/home/laurence/jeu video/sorlo/sorlo_pied/sorlo_d2_pied.png"
       inkscape:export-xdpi="27.610001"
       inkscape:export-ydpi="27.610001" />
    <path
       sodipodi:type="arc"
       style="opacity:1;fill:url(#radialGradient3266);fill-opacity:1;fill-rule:evenodd;stroke:#0f1c29;stroke-width:0.97015876;stroke-linecap:butt;stroke-linejoin:miter;marker:none;marker-start:none;marker-mid:none;marker-end:none;stroke-miterlimit:4;stroke-dasharray:none;stroke-dashoffset:0;stroke-opacity:1;visibility:visible;display:inline;overflow:visible;enable-background:accumulate"
       id="path3264"
       sodipodi:cx="950.22156"
       sodipodi:cy="533.15167"
       sodipodi:rx="2.2843432"
       sodipodi:ry="3.9160171"
       d="M 952.5059,533.15167 A 2.2843432,3.9160171 0 1 1 947.93721,533.15167 A 2.2843432,3.9160171 0 1 1 952.5059,533.15167 z"
       transform="matrix(-2.7097005,0.352797,0.2574098,2.1500158,2694.8587,-1136.8461)"
       inkscape:export-filename="/home/laurence/jeu video/sorlo/sorlo_pied/sorlo_d2_pied.png"
       inkscape:export-xdpi="27.610001"
       inkscape:export-ydpi="27.610001" />
    <path
       style="fill:none;fill-opacity:1;fill-rule:evenodd;stroke:#a8613b;stroke-width:3.13228345;stroke-linecap:butt;stroke-linejoin:miter;stroke-miterlimit:4;stroke-dasharray:none;stroke-opacity:1"
       d="M 265.91014,368.46876 C 262.64679,368.9909 256.38117,365.72755 256.38117,365.72755 C 258.72813,368.47273 261.77922,370.16172 265.51854,370.81837 L 265.91014,368.46876 z"
       id="path3268"
       sodipodi:nodetypes="cccc"
       inkscape:export-filename="/home/laurence/jeu video/sorlo/sorlo_pied/sorlo_d2_pied.png"
       inkscape:export-xdpi="27.610001"
       inkscape:export-ydpi="27.610001" />
    <path
       style="opacity:1;fill:url(#radialGradient2537);fill-opacity:1;fill-rule:evenodd;stroke:#192438;stroke-width:3.01181102;stroke-linecap:butt;stroke-linejoin:round;marker:none;marker-start:none;marker-mid:none;marker-end:none;stroke-miterlimit:4;stroke-dasharray:none;stroke-dashoffset:0;stroke-opacity:1;visibility:visible;display:inline;overflow:visible;enable-background:accumulate"
       d="M 710.00391,346.35623 C 664.01642,330.47912 565.16041,355.60718 522.62761,380.99332 C 540.26342,388.17763 660.85584,377.74266 710.00391,346.35623 z"
       id="path2515"
       sodipodi:nodetypes="ccc"
       inkscape:export-filename="/home/laurence/jeu video/sorlo/sorlo_pied/sorlo_d2_pied.png"
       inkscape:export-xdpi="27.610001"
       inkscape:export-ydpi="27.610001"
       inkscape:transform-center-x="-45.898485"
       inkscape:transform-center-y="-55.901022" />
    <path
       style="opacity:1;fill:url(#linearGradient2539);fill-opacity:1;fill-rule:evenodd;stroke:#a8613b;stroke-width:4.05481339;stroke-linecap:butt;stroke-linejoin:round;marker:none;marker-start:none;marker-mid:none;marker-end:none;stroke-miterlimit:4;stroke-dasharray:none;stroke-dashoffset:0;stroke-opacity:1;visibility:visible;display:inline;overflow:visible;enable-background:accumulate"
       d="M 642.66213,318.04844 C 634.01435,303.79173 607.11401,296.65578 591.871,305.67705 C 576.53468,314.75356 570.99292,328.63608 572.82519,339.2937 C 577.83981,368.4619 620.16539,393.91108 632.5769,389.58241 C 637.20535,387.96818 642.67569,379.52034 644.2777,375.5222 C 662.74209,371.7172 653.10445,359.9703 649.26799,358.082 C 651.74298,351.35946 650.6875,326.3124 642.66213,318.04844 z"
       id="path2517"
       sodipodi:nodetypes="csssccc"
       inkscape:export-filename="/home/laurence/jeu video/sorlo/sorlo_pied/sorlo_d2_pied.png"
       inkscape:export-xdpi="27.610001"
       inkscape:export-ydpi="27.610001"
       inkscape:transform-center-x="-37.520154"
       inkscape:transform-center-y="-76.095486" />
    <path
       sodipodi:type="arc"
       style="opacity:1;fill:url(#radialGradient2543);fill-opacity:1;fill-rule:evenodd;stroke:#0f1c29;stroke-width:0.97015876;stroke-linecap:butt;stroke-linejoin:miter;marker:none;marker-start:none;marker-mid:none;marker-end:none;stroke-miterlimit:4;stroke-dasharray:none;stroke-dashoffset:0;stroke-opacity:1;visibility:visible;display:inline;overflow:visible;enable-background:accumulate"
       id="path2521"
       sodipodi:cx="950.22156"
       sodipodi:cy="533.15167"
       sodipodi:rx="2.2843432"
       sodipodi:ry="3.9160171"
       d="M 952.5059,533.15167 A 2.2843432,3.9160171 0 1 1 947.93721,533.15167 A 2.2843432,3.9160171 0 1 1 952.5059,533.15167 z"
       transform="matrix(-2.6997513,-0.4222388,-0.3566376,2.135799,3392.7669,-381.87723)"
       inkscape:export-filename="/home/laurence/jeu video/sorlo/sorlo_pied/sorlo_d2_pied.png"
       inkscape:export-xdpi="27.610001"
       inkscape:export-ydpi="27.610001"
       inkscape:transform-center-x="-60.927996"
       inkscape:transform-center-y="-66.358382" />
    <path
       style="fill:none;fill-opacity:1;fill-rule:evenodd;stroke:#a8613b;stroke-width:3.13228345;stroke-linecap:butt;stroke-linejoin:miter;stroke-miterlimit:4;stroke-dasharray:none;stroke-opacity:1;display:inline"
       d="M 638.8634,380.86783 C 635.58472,380.45266 630.48747,375.5613 630.48747,375.5613 C 631.9692,378.85504 634.42331,381.33278 637.82782,383.01296 L 638.8634,380.86783 z"
       id="path2523"
       sodipodi:nodetypes="cccc"
       inkscape:export-filename="/home/laurence/jeu video/sorlo/sorlo_pied/sorlo_d2_pied.png"
       inkscape:export-xdpi="27.610001"
       inkscape:export-ydpi="27.610001"
       inkscape:transform-center-x="-58.34039"
       inkscape:transform-center-y="-42.67842" />
    <path
       style="opacity:1;fill:url(#radialGradient2541);fill-opacity:1;fill-rule:evenodd;stroke:#192438;stroke-width:5.86541891;stroke-linecap:butt;stroke-linejoin:round;stroke-miterlimit:4;stroke-dasharray:none;stroke-opacity:1;display:inline"
       d="M 708.0772,344.44004 C 609.21042,349.16025 581.9248,353.29003 523.57127,380.08405 C 536.10298,372.82514 550.92324,350.79827 570.06442,338.07003 L 572.64641,319.02236 C 554.11336,317.06018 531.09344,322.03865 513.82723,326.82139 C 503.6747,322.60899 508.37155,319.05238 506.37723,313.34002 C 559.18421,298.44347 560.27879,281.9894 592.42666,277.36467 C 638.49625,300.805 640.32755,309.67418 657.49775,324.64836 C 671.44405,328.5686 687.12069,334.08711 708.0772,344.44004 z"
       id="path2519"
       sodipodi:nodetypes="ccccccccc"
       inkscape:export-filename="/home/laurence/jeu video/sorlo/sorlo_pied/sorlo_d2_pied.png"
       inkscape:export-xdpi="27.610001"
       inkscape:export-ydpi="27.610001"
       inkscape:transform-center-x="-45.648693"
       inkscape:transform-center-y="-88.637038" />
    <path
       style="opacity:1;fill:url(#radialGradient2580);fill-opacity:1;fill-rule:evenodd;stroke:#192438;stroke-width:3.01181102;stroke-linecap:butt;stroke-linejoin:round;marker:none;marker-start:none;marker-mid:none;marker-end:none;stroke-miterlimit:4;stroke-dasharray:none;stroke-dashoffset:0;stroke-opacity:1;visibility:visible;display:inline;overflow:visible;enable-background:accumulate"
       d="M 987.56116,275.91905 C 942.73273,294.8226 885.95163,379.55651 871.25728,426.85948 C 889.18042,420.42544 971.95198,332.1062 987.56116,275.91905 z"
       id="path2558"
       sodipodi:nodetypes="ccc"
       inkscape:export-filename="/home/laurence/jeu video/sorlo/sorlo_pied/sorlo_d2_pied.png"
       inkscape:export-xdpi="27.610001"
       inkscape:export-ydpi="27.610001"
       inkscape:transform-center-x="-30.507498"
       inkscape:transform-center-y="21.031224" />
    <path
       style="opacity:1;fill:url(#linearGradient2582);fill-opacity:1;fill-rule:evenodd;stroke:#a8613b;stroke-width:4.05481339;stroke-linecap:butt;stroke-linejoin:round;marker:none;marker-start:none;marker-mid:none;marker-end:none;stroke-miterlimit:4;stroke-dasharray:none;stroke-dashoffset:0;stroke-opacity:1;visibility:visible;display:inline;overflow:visible;enable-background:accumulate"
       d="M 925.83005,302.15768 C 911.08031,294.38062 884.34136,302.09937 875.91064,317.67678 C 867.42832,333.34956 869.81751,348.10514 876.87125,356.3019 C 896.17623,378.7351 945.56359,378.78556 953.98017,368.68881 C 957.11886,364.92358 957.46413,354.86518 956.78118,350.61251 C 970.65773,337.85111 956.35023,332.7355 952.08893,333.08978 C 950.75313,326.05175 936.96327,305.11592 925.83005,302.15768 z"
       id="path2560"
       sodipodi:nodetypes="csssccc"
       inkscape:export-filename="/home/laurence/jeu video/sorlo/sorlo_pied/sorlo_d2_pied.png"
       inkscape:export-xdpi="27.610001"
       inkscape:export-ydpi="27.610001"
       inkscape:transform-center-x="14.501964"
       inkscape:transform-center-y="-90.091802" />
    <path
       sodipodi:type="arc"
       style="opacity:1;fill:url(#radialGradient2586);fill-opacity:1;fill-rule:evenodd;stroke:#0f1c29;stroke-width:0.97015876;stroke-linecap:butt;stroke-linejoin:miter;marker:none;marker-start:none;marker-mid:none;marker-end:none;stroke-miterlimit:4;stroke-dasharray:none;stroke-dashoffset:0;stroke-opacity:1;visibility:visible;display:inline;overflow:visible;enable-background:accumulate"
       id="path2564"
       sodipodi:cx="950.22156"
       sodipodi:cy="533.15167"
       sodipodi:rx="2.2843432"
       sodipodi:ry="3.9160171"
       d="M 952.5059,533.15167 A 2.2843432,3.9160171 0 1 1 947.93721,533.15167 A 2.2843432,3.9160171 0 1 1 952.5059,533.15167 z"
       transform="matrix(-2.532347,1.0267234,0.7928699,2.0149901,2924.0919,-1712.7669)"
       inkscape:export-filename="/home/laurence/jeu video/sorlo/sorlo_pied/sorlo_d2_pied.png"
       inkscape:export-xdpi="27.610001"
       inkscape:export-ydpi="27.610001"
       inkscape:transform-center-x="-9.4200474"
       inkscape:transform-center-y="-90.072627" />
    <path
       style="fill:none;fill-opacity:1;fill-rule:evenodd;stroke:#a8613b;stroke-width:3.13228345;stroke-linecap:butt;stroke-linejoin:miter;stroke-miterlimit:4;stroke-dasharray:none;stroke-opacity:1;display:inline"
       d="M 954.88813,357.98182 C 951.86297,359.31242 944.97565,357.74003 944.97565,357.74003 C 947.94067,359.8023 951.31976,360.66461 955.10358,360.35407 L 954.88813,357.98182 z"
       id="path2566"
       sodipodi:nodetypes="cccc"
       inkscape:export-filename="/home/laurence/jeu video/sorlo/sorlo_pied/sorlo_d2_pied.png"
       inkscape:export-xdpi="27.610001"
       inkscape:export-ydpi="27.610001"
       inkscape:transform-center-x="-18.938528"
       inkscape:transform-center-y="-68.137953" />
  </g>
  <g
     inkscape:label="corps"
     inkscape:groupmode="layer"
     id="layer1"
     style="display:inline">
    <path
       style="opacity:1;fill:url(#radialGradient3280);fill-opacity:1;fill-rule:evenodd;stroke:#214361;stroke-width:5.41417313;stroke-linecap:butt;stroke-linejoin:round;marker:none;marker-start:none;marker-mid:none;marker-end:none;stroke-miterlimit:4;stroke-dasharray:none;stroke-dashoffset:0;stroke-opacity:1;visibility:visible;display:inline;overflow:visible;enable-background:accumulate"
       d="M 252.24439,383.30316 C 238.83041,383.85686 218.22782,375.48106 209.68834,367.67513 C 181.9812,393.48277 176.0253,429.89142 145.80161,473.40072 C 170.61353,478.36132 280.88656,475.8953 296.70613,472.76195 C 286.54331,442.39636 273.71818,404.07309 252.24439,383.30316 z"
       id="path3354"
       sodipodi:nodetypes="ccccc"
       inkscape:export-filename="/home/laurence/jeu video/sorlo/sorlo_pied/sorlo_d2_pied.png"
       inkscape:export-xdpi="27.610001"
       inkscape:export-ydpi="27.610001" />
    <path
       style="opacity:1;fill:url(#radialGradient2545);fill-opacity:1;fill-rule:evenodd;stroke:#214361;stroke-width:5.41417313;stroke-linecap:butt;stroke-linejoin:round;marker:none;marker-start:none;marker-mid:none;marker-end:none;stroke-miterlimit:4;stroke-dasharray:none;stroke-dashoffset:0;stroke-opacity:1;visibility:visible;display:inline;overflow:visible;enable-background:accumulate"
       d="M 619.6889,390.71444 C 606.65909,387.47942 587.92206,372.99815 581.91791,363.10849 C 548.07901,380.09816 546.49623,399.18263 505.27166,432.45523 C 529.64377,434.94753 547.91692,446.09881 567.33229,455.97227 C 586.74766,465.84572 607.30524,474.44135 636.24621,471.82235 C 608.71725,450.34526 634.46694,416.67833 619.6889,390.71444 z"
       id="path2525"
       sodipodi:nodetypes="cccscc"
       inkscape:export-filename="/home/laurence/jeu video/sorlo/sorlo_pied/sorlo_d2_pied.png"
       inkscape:export-xdpi="27.610001"
       inkscape:export-ydpi="27.610001"
       inkscape:transform-center-x="6.927538"
       inkscape:transform-center-y="3.0083446" />
    <path
       style="opacity:1;fill:url(#radialGradient3396);fill-opacity:1;fill-rule:evenodd;stroke:#214361;stroke-width:5.41417313;stroke-linecap:butt;stroke-linejoin:round;marker:none;marker-start:none;marker-mid:none;marker-end:none;stroke-miterlimit:4;stroke-dasharray:none;stroke-dashoffset:0;stroke-opacity:1;visibility:visible;display:inline;overflow:visible;enable-background:accumulate"
       d="M 942.70811,375.81959 C 929.87039,379.74826 907.81917,376.85611 897.58293,371.46401 C 870.52841,416.5715 897.52425,452.74229 884.5437,474.97074 C 983.43875,469.19438 964.74678,422.26569 991.48337,409.99799 C 968.83967,410.35778 971.25267,387.1063 942.70811,375.81959 z"
       id="path2568"
       sodipodi:nodetypes="ccccc"
       inkscape:export-filename="/home/laurence/jeu video/sorlo/sorlo_pied/sorlo_d2_pied.png"
       inkscape:export-xdpi="27.610001"
       inkscape:export-ydpi="27.610001"
       inkscape:transform-center-x="-8.8734885"
       inkscape:transform-center-y="-0.21724942" />
  </g>
  <g
     inkscape:groupmode="layer"
     id="layer9"
     inkscape:label="chapeau"
     style="display:inline">
    <path
       style="opacity:1;fill:url(#radialGradient2584);fill-opacity:1;fill-rule:evenodd;stroke:#192438;stroke-width:5.86541891;stroke-linecap:butt;stroke-linejoin:round;stroke-miterlimit:4;stroke-dasharray:none;stroke-opacity:1;display:inline"
       d="M 984.84737,275.78008 C 953.05547,293.87209 908.10701,339.768 871.35215,425.55249 C 875.82912,411.7796 872.14439,385.48805 877.88654,363.23 L 867.08446,347.33045 C 859.2493,372.97592 850.08367,385.96758 837.20659,399.49556 C 833.42734,399.8841 829.81369,398.16022 824.5138,395.24139 C 852.70026,361.56025 833.14334,328.03278 853.97777,303.11693 C 903.9194,289.7869 911.20669,295.16385 933.98684,294.83786 C 946.984,288.43931 962.33645,282.0743 984.84737,275.78008 z"
       id="path2562"
       sodipodi:nodetypes="ccccccccc"
       inkscape:export-filename="/home/laurence/jeu video/sorlo/sorlo_pied/sorlo_d2_pied.png"
       inkscape:export-xdpi="27.610001"
       inkscape:export-ydpi="27.610001"
       inkscape:transform-center-x="-5.7788633"
       inkscape:transform-center-y="20.308244" />
  </g>
  <g
     inkscape:groupmode="layer"
     id="layer4"
     inkscape:label="bras"
     style="display:inline">
    <path
       style="opacity:1;fill:url(#radialGradient3260);fill-opacity:1;fill-rule:evenodd;stroke:#214361;stroke-width:2.71417332;stroke-linecap:butt;stroke-linejoin:bevel;marker:none;marker-start:none;marker-mid:none;marker-end:none;stroke-miterlimit:4;stroke-dasharray:none;stroke-dashoffset:0;stroke-opacity:1;visibility:visible;display:inline;overflow:visible;enable-background:accumulate"
       d="M 239.6176,414.41838 C 225.95554,414.75141 197.07861,434.92948 192.84731,444.91047 C 210.7363,445.19083 235.89463,419.50502 239.6176,414.41838 z"
       id="path3252"
       sodipodi:nodetypes="ccc"
       inkscape:export-filename="/home/laurence/jeu video/sorlo/sorlo_pied/sorlo_d2_pied.png"
       inkscape:export-xdpi="27.610001"
       inkscape:export-ydpi="27.610001" />
    <path
       style="opacity:1;fill:url(#linearGradient3398);fill-opacity:1;fill-rule:evenodd;stroke:#a8613b;stroke-width:3.29881883;stroke-linecap:butt;stroke-linejoin:round;marker:none;marker-start:none;marker-mid:none;marker-end:none;stroke-miterlimit:4;stroke-dasharray:none;stroke-dashoffset:0;stroke-opacity:1;visibility:visible;display:inline;overflow:visible;enable-background:accumulate"
       d="M 230.6773,395.77227 C 229.06856,411.28719 230.43535,408.69766 234.18418,418.39474 C 237.87181,421.50358 239.17851,422.17843 242.11328,425.28728 C 246.96419,427.06402 248.29714,436.66226 242.05848,436.52462 C 244.44569,444.96572 235.1804,456.18767 217.62868,451.67835 C 208.32294,449.28755 204.94723,437.59375 204.77458,431.67937 C 195.75682,421.02985 190.77055,413.9757 198.47161,391.86293 C 207.07348,380.63191 224.72457,384.33471 230.6773,395.77227 z"
       id="path3276"
       sodipodi:nodetypes="ccccsccc"
       inkscape:export-filename="/home/laurence/jeu video/sorlo/sorlo_pied/sorlo_d2_pied.png"
       inkscape:export-xdpi="27.610001"
       inkscape:export-ydpi="27.610001" />
    <path
       style="opacity:1;fill:url(#radialGradient3312);fill-opacity:1;fill-rule:evenodd;stroke:#214361;stroke-width:5.19448805;stroke-linecap:butt;stroke-linejoin:round;marker:none;marker-start:none;marker-mid:none;marker-end:none;stroke-miterlimit:4;stroke-dasharray:none;stroke-dashoffset:0;stroke-opacity:1;visibility:visible;display:inline;overflow:visible;enable-background:accumulate"
       d="M 230.76554,393.6933 C 230.34911,406.8834 234.18512,407.82626 237.89766,414.68813 C 212.08082,424.43053 200.51907,432.52476 193.53475,442.3663 C 189.03338,427.64787 188.38845,404.22658 199.08409,388.78942 C 203.46666,381.103 221.20478,376.67723 230.76554,393.6933 z"
       id="path3274"
       sodipodi:nodetypes="ccccc"
       inkscape:export-xdpi="27.610001"
       inkscape:export-ydpi="27.610001"
       inkscape:export-filename="/home/laurence/jeu video/sorlo/sorlo_pied/sorlo_d2_pied.png" />
    <path
       style="opacity:1;fill:url(#radialGradient2550);fill-opacity:1;fill-rule:evenodd;stroke:#214361;stroke-width:2.71417332;stroke-linecap:butt;stroke-linejoin:bevel;marker:none;marker-start:none;marker-mid:none;marker-end:none;stroke-miterlimit:4;stroke-dasharray:none;stroke-dashoffset:0;stroke-opacity:1;visibility:visible;display:inline;overflow:visible;enable-background:accumulate"
       d="M 571.06064,421.52645 C 565.51557,409.03585 535.80887,390.10061 524.96832,390.01889 C 531.56731,406.64862 564.93539,420.03793 571.06064,421.52645 z"
       id="path2529"
       sodipodi:nodetypes="ccc"
       inkscape:export-filename="/home/laurence/jeu video/sorlo/sorlo_pied/sorlo_d2_pied.png"
       inkscape:export-xdpi="27.610001"
       inkscape:export-ydpi="27.610001"
       inkscape:transform-center-x="28.320565"
       inkscape:transform-center-y="-16.19288" />
    <path
       style="opacity:1;fill:url(#linearGradient2552);fill-opacity:1;fill-rule:evenodd;stroke:#a8613b;stroke-width:3.29881883;stroke-linecap:butt;stroke-linejoin:round;marker:none;marker-start:none;marker-mid:none;marker-end:none;stroke-miterlimit:4;stroke-dasharray:none;stroke-dashoffset:0;stroke-opacity:1;visibility:visible;display:inline;overflow:visible;enable-background:accumulate"
       d="M 584.85482,406.12103 C 569.90853,410.58299 572.82419,410.85264 565.30513,418.03252 C 563.84749,422.63022 563.72514,424.0958 561.97888,427.99815 C 562.19752,433.15958 553.8436,438.07027 551.57908,432.25548 C 544.69804,437.69629 530.78152,433.44092 528.2177,415.50148 C 526.8584,405.99016 536.36467,398.38943 541.761,395.96264 C 548.13984,383.55124 552.74351,376.24165 576.11911,374.8772 C 589.78969,378.51636 593.1365,396.23839 584.85482,406.12103 z"
       id="path2531"
       sodipodi:nodetypes="ccccsccc"
       inkscape:export-filename="/home/laurence/jeu video/sorlo/sorlo_pied/sorlo_d2_pied.png"
       inkscape:export-xdpi="27.610001"
       inkscape:export-ydpi="27.610001"
       inkscape:transform-center-x="17.622345"
       inkscape:transform-center-y="-17.0839" />
    <path
       style="opacity:1;fill:url(#radialGradient2554);fill-opacity:1;fill-rule:evenodd;stroke:#214361;stroke-width:5.19448805;stroke-linecap:butt;stroke-linejoin:round;marker:none;marker-start:none;marker-mid:none;marker-end:none;stroke-miterlimit:4;stroke-dasharray:none;stroke-dashoffset:0;stroke-opacity:1;visibility:visible;display:inline;overflow:visible;enable-background:accumulate"
       d="M 586.80878,405.40553 C 574.46677,410.07747 575.06653,413.98186 570.15214,420.04132 C 551.25693,399.93176 539.3488,392.35634 527.58166,389.67848 C 539.44994,379.87856 560.83459,370.30412 579.19261,374.26463 C 587.97188,375.3657 598.8596,390.05194 586.80878,405.40553 z"
       id="path2533"
       sodipodi:nodetypes="ccccc"
       inkscape:export-xdpi="27.610001"
       inkscape:export-ydpi="27.610001"
       inkscape:export-filename="/home/laurence/jeu video/sorlo/sorlo_pied/sorlo_d2_pied.png"
       inkscape:transform-center-x="16.468315"
       inkscape:transform-center-y="-25.270643" />
    <path
       style="opacity:1;fill:url(#radialGradient3415);fill-opacity:1;fill-rule:evenodd;stroke:#214361;stroke-width:2.71417332;stroke-linecap:butt;stroke-linejoin:bevel;marker:none;marker-start:none;marker-mid:none;marker-end:none;stroke-miterlimit:4;stroke-dasharray:none;stroke-dashoffset:0;stroke-opacity:1;visibility:visible;display:inline;overflow:visible;enable-background:accumulate"
       d="M 948.01093,384.72125 C 941.79026,396.88949 945.76045,431.89334 952.51684,440.37126 C 961.29188,424.77982 950.70733,390.41894 948.01093,384.72125 z"
       id="path2572"
       sodipodi:nodetypes="ccc"
       inkscape:export-filename="/home/laurence/jeu video/sorlo/sorlo_pied/sorlo_d2_pied.png"
       inkscape:export-xdpi="27.610001"
       inkscape:export-ydpi="27.610001"
       inkscape:transform-center-x="-32.596054"
       inkscape:transform-center-y="16.514693" />
    <path
       style="opacity:1;fill:url(#linearGradient3417);fill-opacity:1;fill-rule:evenodd;stroke:#a8613b;stroke-width:3.29881883;stroke-linecap:butt;stroke-linejoin:round;marker:none;marker-start:none;marker-mid:none;marker-end:none;stroke-miterlimit:4;stroke-dasharray:none;stroke-dashoffset:0;stroke-opacity:1;visibility:visible;display:inline;overflow:visible;enable-background:accumulate"
       d="M 927.35798,383.69056 C 940.22921,392.50146 938.60453,390.06543 948.91589,391.39315 C 953.40677,389.63374 954.62297,388.80683 958.75491,387.70921 C 962.62942,384.29215 971.70213,387.69639 968.60686,393.11479 C 977.165,395.04065 982.61228,408.53528 970.28061,421.81409 C 963.74248,428.85437 951.8538,426.24671 946.57252,423.57879 C 932.91198,426.42858 924.33389,427.44862 908.56742,410.1368 C 902.79587,397.22103 914.46595,383.47037 927.35798,383.69056 z"
       id="path2574"
       sodipodi:nodetypes="ccccsccc"
       inkscape:export-filename="/home/laurence/jeu video/sorlo/sorlo_pied/sorlo_d2_pied.png"
       inkscape:export-xdpi="27.610001"
       inkscape:export-ydpi="27.610001"
       inkscape:transform-center-x="-24.450202"
       inkscape:transform-center-y="8.9843045" />
    <path
       style="opacity:1;fill:url(#radialGradient3419);fill-opacity:1;fill-rule:evenodd;stroke:#214361;stroke-width:5.19448805;stroke-linecap:butt;stroke-linejoin:round;marker:none;marker-start:none;marker-mid:none;marker-end:none;stroke-miterlimit:4;stroke-dasharray:none;stroke-dashoffset:0;stroke-opacity:1;visibility:visible;display:inline;overflow:visible;enable-background:accumulate"
       d="M 925.57255,382.62183 C 936.96862,389.27629 939.62625,386.35379 947.42805,386.36174 C 943.68379,413.70044 945.28685,427.72259 950.60815,438.55405 C 935.52406,435.49387 914.62837,424.89467 906.15768,408.13312 C 901.49041,400.61615 906.05668,382.91368 925.57255,382.62183 z"
       id="path2576"
       sodipodi:nodetypes="ccccc"
       inkscape:export-xdpi="27.610001"
       inkscape:export-ydpi="27.610001"
       inkscape:export-filename="/home/laurence/jeu video/sorlo/sorlo_pied/sorlo_d2_pied.png"
       inkscape:transform-center-x="-9.7158054"
       inkscape:transform-center-y="14.556378" />
  </g>
</svg>
