<?xml version="1.0" encoding="UTF-8" standalone="no"?>
<!-- Created with Inkscape (http://www.inkscape.org/) -->
<svg
   xmlns:dc="http://purl.org/dc/elements/1.1/"
   xmlns:cc="http://creativecommons.org/ns#"
   xmlns:rdf="http://www.w3.org/1999/02/22-rdf-syntax-ns#"
   xmlns:svg="http://www.w3.org/2000/svg"
   xmlns="http://www.w3.org/2000/svg"
   xmlns:xlink="http://www.w3.org/1999/xlink"
   xmlns:sodipodi="http://sodipodi.sourceforge.net/DTD/sodipodi-0.dtd"
   xmlns:inkscape="http://www.inkscape.org/namespaces/inkscape"
   width="297mm"
   height="210mm"
   id="svg2438"
   sodipodi:version="0.32"
   inkscape:version="0.46"
   sodipodi:docname="sorlo_d2_saut.svg"
   inkscape:output_extension="org.inkscape.output.svg.inkscape"
   inkscape:export-filename="/home/laurence/programation/jeu video/sorlo/sorlo_g2_marche.png"
   inkscape:export-xdpi="27.704655"
   inkscape:export-ydpi="27.704655">
  <defs
     id="defs2440">
    <linearGradient
       id="linearGradient3268">
      <stop
         id="stop3270"
         offset="0"
         style="stop-color:#ffffff;stop-opacity:1;" />
      <stop
         style="stop-color:#0f1c29;stop-opacity:1;"
         offset="1"
         id="stop3272" />
    </linearGradient>
    <linearGradient
       id="linearGradient3254">
      <stop
         id="stop3256"
         offset="0"
         style="stop-color:#376e83;stop-opacity:1;" />
      <stop
         style="stop-color:#23313e;stop-opacity:1;"
         offset="1"
         id="stop3258" />
    </linearGradient>
    <linearGradient
       id="linearGradient3284">
      <stop
         style="stop-color:#2c5adb;stop-opacity:1;"
         offset="0"
         id="stop3286" />
      <stop
         id="stop3292"
         offset="1"
         style="stop-color:#020130;stop-opacity:1;" />
    </linearGradient>
    <radialGradient
       inkscape:collect="always"
       xlink:href="#linearGradient3284"
       id="radialGradient3290"
       cx="979.66461"
       cy="534.93903"
       fx="979.66461"
       fy="534.93903"
       r="59.07611"
       gradientTransform="matrix(-1.3025683,-0.3520824,-0.2978999,1.1021137,1568.1542,93.288796)"
       gradientUnits="userSpaceOnUse" />
    <linearGradient
       id="linearGradient3344">
      <stop
         style="stop-color:#a36329;stop-opacity:1;"
         offset="0"
         id="stop3346" />
      <stop
         style="stop-color:#4d2f1b;stop-opacity:1;"
         offset="1"
         id="stop3348" />
    </linearGradient>
    <radialGradient
       inkscape:collect="always"
       xlink:href="#linearGradient3344"
       id="radialGradient3352"
       cx="947.99762"
       cy="614.91156"
       fx="947.99762"
       fy="614.91156"
       r="69.041389"
       gradientTransform="matrix(-1.3416319,-0.6538745,0.3230484,1.300757,1250.9257,245.47723)"
       gradientUnits="userSpaceOnUse" />
    <linearGradient
       id="linearGradient3392">
      <stop
         style="stop-color:#e3c5b2;stop-opacity:1;"
         offset="0"
         id="stop3394" />
      <stop
         style="stop-color:#d08858;stop-opacity:1;"
         offset="1"
         id="stop3396" />
    </linearGradient>
    <linearGradient
       inkscape:collect="always"
       xlink:href="#linearGradient3392"
       id="linearGradient3398"
       x1="948.45645"
       y1="601.04522"
       x2="983.55188"
       y2="601.04522"
       gradientUnits="userSpaceOnUse"
       gradientTransform="matrix(-1.2693001,0,0,0.9975424,1373.1518,-182.97213)" />
    <linearGradient
       id="linearGradient3306">
      <stop
         style="stop-color:#6fc5e8;stop-opacity:1;"
         offset="0"
         id="stop3308" />
      <stop
         id="stop3314"
         offset="1"
         style="stop-color:#4b84bc;stop-opacity:1;" />
    </linearGradient>
    <radialGradient
       inkscape:collect="always"
       xlink:href="#linearGradient3306"
       id="radialGradient3312"
       cx="969.97235"
       cy="591.58643"
       fx="969.97235"
       fy="591.58643"
       r="15.4031"
       gradientTransform="matrix(-1.4796314,0,0,1.7419518,1574.8334,-625.02282)"
       gradientUnits="userSpaceOnUse"
       spreadMethod="pad" />
    <inkscape:perspective
       sodipodi:type="inkscape:persp3d"
       inkscape:vp_x="0 : 372.04724 : 1"
       inkscape:vp_y="0 : 1000 : 0"
       inkscape:vp_z="1052.3622 : 372.04724 : 1"
       inkscape:persp3d-origin="526.18109 : 248.03149 : 1"
       id="perspective2447" />
    <radialGradient
       inkscape:collect="always"
       xlink:href="#linearGradient3284"
       id="radialGradient2476"
       gradientUnits="userSpaceOnUse"
       gradientTransform="matrix(-1.2334466,0,0,0.9026412,1359.8102,-129.95098)"
       cx="979.66459"
       cy="534.93905"
       fx="979.66459"
       fy="534.93905"
       r="59.07611" />
    <linearGradient
       inkscape:collect="always"
       xlink:href="#linearGradient3392"
       id="linearGradient2478"
       gradientUnits="userSpaceOnUse"
       x1="948.45645"
       y1="601.04522"
       x2="983.55188"
       y2="601.04522"
       gradientTransform="matrix(-1.5214036,0,0,1.4403713,1622.2089,-428.12036)" />
    <linearGradient
       inkscape:collect="always"
       xlink:href="#linearGradient3392"
       id="linearGradient2480"
       gradientUnits="userSpaceOnUse"
       x1="948.45645"
       y1="601.04522"
       x2="983.55188"
       y2="601.04522"
       gradientTransform="matrix(1.6334066,0,0,0.9930531,-1071.1041,9.2964588)" />
    <inkscape:perspective
       id="perspective2416"
       inkscape:persp3d-origin="372.04724 : 350.78739 : 1"
       inkscape:vp_z="744.09448 : 526.18109 : 1"
       inkscape:vp_y="0 : 1000 : 0"
       inkscape:vp_x="0 : 526.18109 : 1"
       sodipodi:type="inkscape:persp3d" />
    <inkscape:perspective
       id="perspective2453"
       inkscape:persp3d-origin="372.04724 : 350.78739 : 1"
       inkscape:vp_z="744.09448 : 526.18109 : 1"
       inkscape:vp_y="0 : 1000 : 0"
       inkscape:vp_x="0 : 526.18109 : 1"
       sodipodi:type="inkscape:persp3d" />
    <radialGradient
       inkscape:collect="always"
       xlink:href="#linearGradient3254"
       id="radialGradient3260"
       gradientUnits="userSpaceOnUse"
       gradientTransform="matrix(-1.4796314,0,0,1.7419518,1575.2604,-626.4045)"
       spreadMethod="pad"
       cx="969.97235"
       cy="591.58643"
       fx="969.97235"
       fy="591.58643"
       r="15.4031" />
    <radialGradient
       inkscape:collect="always"
       xlink:href="#linearGradient3268"
       id="radialGradient3266"
       cx="948.12445"
       cy="533.30597"
       fx="948.12445"
       fy="533.30597"
       r="2.915092"
       gradientTransform="matrix(0.5477489,0.7554252,-0.5090589,0.5943952,701.1884,-500.4227)"
       gradientUnits="userSpaceOnUse" />
    <radialGradient
       inkscape:collect="always"
       xlink:href="#linearGradient3306"
       id="radialGradient3280"
       cx="506.75427"
       cy="612.61304"
       fx="506.75427"
       fy="612.61304"
       r="75.660156"
       gradientTransform="matrix(-0.9995026,0,0,0.7497184,652.32823,-37.634464)"
       gradientUnits="userSpaceOnUse" />
    <linearGradient
       inkscape:collect="always"
       xlink:href="#linearGradient3392"
       id="linearGradient3285"
       gradientUnits="userSpaceOnUse"
       gradientTransform="matrix(-1.6334066,0,0,0.9930531,1722.5416,-181.89894)"
       x1="948.45645"
       y1="601.04522"
       x2="983.55188"
       y2="601.04522" />
    <radialGradient
       inkscape:collect="always"
       xlink:href="#linearGradient3284"
       id="radialGradient2551"
       gradientUnits="userSpaceOnUse"
       gradientTransform="matrix(-1.2296922,9.6165106e-2,7.0374013e-2,0.8998937,1548.9443,-288.66826)"
       cx="979.66459"
       cy="534.93905"
       fx="979.66459"
       fy="534.93905"
       r="59.07611" />
    <linearGradient
       inkscape:collect="always"
       xlink:href="#linearGradient3392"
       id="linearGradient2553"
       gradientUnits="userSpaceOnUse"
       gradientTransform="matrix(-1.5214036,0,0,1.4403713,1859.0904,-480.24409)"
       x1="948.45645"
       y1="601.04522"
       x2="983.55188"
       y2="601.04522" />
    <radialGradient
       inkscape:collect="always"
       xlink:href="#linearGradient3284"
       id="radialGradient2555"
       gradientUnits="userSpaceOnUse"
       gradientTransform="matrix(-1.3260534,-0.2494566,-0.2110673,1.1219846,1774.0589,-82.351443)"
       cx="979.66461"
       cy="534.93903"
       fx="979.66461"
       fy="534.93903"
       r="59.07611" />
    <radialGradient
       inkscape:collect="always"
       xlink:href="#linearGradient3268"
       id="radialGradient2557"
       gradientUnits="userSpaceOnUse"
       gradientTransform="matrix(0.5477489,0.7554252,-0.5090589,0.5943952,701.1884,-500.4227)"
       cx="948.12445"
       cy="533.30597"
       fx="948.12445"
       fy="533.30597"
       r="2.915092" />
    <radialGradient
       inkscape:collect="always"
       xlink:href="#linearGradient3306"
       id="radialGradient2559"
       gradientUnits="userSpaceOnUse"
       gradientTransform="matrix(-0.9995026,0,0,0.7497184,889.2098,-89.758191)"
       cx="506.75427"
       cy="612.61304"
       fx="506.75427"
       fy="612.61304"
       r="75.660156" />
    <radialGradient
       inkscape:collect="always"
       xlink:href="#linearGradient3344"
       id="radialGradient2561"
       gradientUnits="userSpaceOnUse"
       gradientTransform="matrix(-1.4858287,0.1408596,0.9534271,0.9419691,1234.675,-457.08517)"
       cx="947.99762"
       cy="614.91156"
       fx="947.99762"
       fy="614.91156"
       r="69.041389" />
    <radialGradient
       inkscape:collect="always"
       xlink:href="#linearGradient3254"
       id="radialGradient2563"
       gradientUnits="userSpaceOnUse"
       gradientTransform="matrix(1.2524407,0.7878459,0.9275215,-1.4744829,-1386.4258,433.48405)"
       spreadMethod="pad"
       cx="969.97235"
       cy="591.58643"
       fx="969.97235"
       fy="591.58643"
       r="15.4031" />
    <linearGradient
       inkscape:collect="always"
       xlink:href="#linearGradient3392"
       id="linearGradient2565"
       gradientUnits="userSpaceOnUse"
       gradientTransform="matrix(1.0744046,0.6758528,0.5311525,-0.8443743,-979.2397,165.75374)"
       x1="977.43756"
       y1="605.96753"
       x2="959.02936"
       y2="603.83746" />
    <radialGradient
       inkscape:collect="always"
       xlink:href="#linearGradient3306"
       id="radialGradient2567"
       gradientUnits="userSpaceOnUse"
       gradientTransform="matrix(1.1111471,0.4590493,0.5398493,-1.3067272,-1018.9361,652.22385)"
       spreadMethod="pad"
       cx="969.97235"
       cy="591.58643"
       fx="969.97235"
       fy="591.58643"
       r="15.4031" />
    <linearGradient
       inkscape:collect="always"
       xlink:href="#linearGradient3392"
       id="linearGradient2591"
       gradientUnits="userSpaceOnUse"
       gradientTransform="matrix(-1.6334066,0,0,0.9930531,2219.7128,-182.02267)"
       x1="948.45645"
       y1="601.04522"
       x2="983.55188"
       y2="601.04522" />
    <radialGradient
       inkscape:collect="always"
       xlink:href="#linearGradient3284"
       id="radialGradient2593"
       gradientUnits="userSpaceOnUse"
       gradientTransform="matrix(-1.2334466,0,0,0.9026412,1862.1649,-123.16336)"
       cx="979.66459"
       cy="534.93905"
       fx="979.66459"
       fy="534.93905"
       r="59.07611" />
    <linearGradient
       inkscape:collect="always"
       xlink:href="#linearGradient3392"
       id="linearGradient2595"
       gradientUnits="userSpaceOnUse"
       gradientTransform="matrix(-1.5214036,0,0,1.4403713,2124.5636,-421.33274)"
       x1="948.45645"
       y1="601.04522"
       x2="983.55188"
       y2="601.04522" />
    <radialGradient
       inkscape:collect="always"
       xlink:href="#linearGradient3284"
       id="radialGradient2597"
       gradientUnits="userSpaceOnUse"
       gradientTransform="matrix(1.3025683,-0.3520824,0.2978999,1.1021137,-995.53599,100.60959)"
       cx="979.66461"
       cy="534.93903"
       fx="979.66461"
       fy="534.93903"
       r="59.07611" />
    <radialGradient
       inkscape:collect="always"
       xlink:href="#linearGradient3268"
       id="radialGradient2599"
       gradientUnits="userSpaceOnUse"
       gradientTransform="matrix(0.5477489,0.7554252,-0.5090589,0.5943952,701.1884,-500.4227)"
       cx="948.12445"
       cy="533.30597"
       fx="948.12445"
       fy="533.30597"
       r="2.915092" />
    <radialGradient
       inkscape:collect="always"
       xlink:href="#linearGradient3306"
       id="radialGradient2601"
       gradientUnits="userSpaceOnUse"
       gradientTransform="matrix(-0.9995026,0,0,0.7497184,1149.4994,-37.75819)"
       cx="506.75427"
       cy="612.61304"
       fx="506.75427"
       fy="612.61304"
       r="75.660156" />
    <radialGradient
       inkscape:collect="always"
       xlink:href="#linearGradient3344"
       id="radialGradient2603"
       gradientUnits="userSpaceOnUse"
       gradientTransform="matrix(-1.3180269,0.7002381,1.2419016,0.5039938,1160.6182,-567.5852)"
       cx="947.99762"
       cy="614.91156"
       fx="947.99762"
       fy="614.91156"
       r="69.041389" />
    <radialGradient
       inkscape:collect="always"
       xlink:href="#linearGradient3254"
       id="radialGradient2605"
       gradientUnits="userSpaceOnUse"
       gradientTransform="matrix(-1.2004208,0.8650425,1.018404,1.4132407,1209.0974,-1278.1199)"
       spreadMethod="pad"
       cx="969.97235"
       cy="591.58643"
       fx="969.97235"
       fy="591.58643"
       r="15.4031" />
    <linearGradient
       inkscape:collect="always"
       xlink:href="#linearGradient3392"
       id="linearGradient2607"
       gradientUnits="userSpaceOnUse"
       gradientTransform="matrix(-0.8321495,0.9584622,0.753255,0.653986,1002.1186,-910.80924)"
       x1="948.45645"
       y1="601.04522"
       x2="983.55188"
       y2="601.04522" />
    <radialGradient
       inkscape:collect="always"
       xlink:href="#linearGradient3306"
       id="radialGradient2609"
       gradientUnits="userSpaceOnUse"
       gradientTransform="matrix(-1.1807871,0.8916563,1.0497359,1.390126,1171.3333,-1289.342)"
       spreadMethod="pad"
       cx="969.97235"
       cy="591.58643"
       fx="969.97235"
       fy="591.58643"
       r="15.4031" />
    <linearGradient
       inkscape:collect="always"
       xlink:href="#linearGradient3392"
       id="linearGradient2633"
       gradientUnits="userSpaceOnUse"
       gradientTransform="matrix(-1.6334066,0,0,0.9930531,2480.0024,-182.02267)"
       x1="948.45645"
       y1="601.04522"
       x2="983.55188"
       y2="601.04522" />
    <radialGradient
       inkscape:collect="always"
       xlink:href="#linearGradient3284"
       id="radialGradient2635"
       gradientUnits="userSpaceOnUse"
       gradientTransform="matrix(-1.2334466,0,0,0.9026412,2117.271,-130.07471)"
       cx="979.66459"
       cy="534.93905"
       fx="979.66459"
       fy="534.93905"
       r="59.07611" />
    <linearGradient
       inkscape:collect="always"
       xlink:href="#linearGradient3392"
       id="linearGradient2637"
       gradientUnits="userSpaceOnUse"
       gradientTransform="matrix(-1.5214036,0,0,1.4403713,2379.6696,-428.24409)"
       x1="948.45645"
       y1="601.04522"
       x2="983.55188"
       y2="601.04522" />
    <radialGradient
       inkscape:collect="always"
       xlink:href="#linearGradient3284"
       id="radialGradient2639"
       gradientUnits="userSpaceOnUse"
       gradientTransform="matrix(-1.3025683,-0.3520824,-0.2978999,1.1021137,2325.6149,93.165062)"
       cx="979.66461"
       cy="534.93903"
       fx="979.66461"
       fy="534.93903"
       r="59.07611" />
    <radialGradient
       inkscape:collect="always"
       xlink:href="#linearGradient3268"
       id="radialGradient2641"
       gradientUnits="userSpaceOnUse"
       gradientTransform="matrix(0.5477489,0.7554252,-0.5090589,0.5943952,701.1884,-500.4227)"
       cx="948.12445"
       cy="533.30597"
       fx="948.12445"
       fy="533.30597"
       r="2.915092" />
    <radialGradient
       inkscape:collect="always"
       xlink:href="#linearGradient3306"
       id="radialGradient2643"
       gradientUnits="userSpaceOnUse"
       gradientTransform="matrix(-0.9995026,0,0,0.7497184,1409.789,-37.758198)"
       cx="506.75427"
       cy="612.61304"
       fx="506.75427"
       fy="612.61304"
       r="75.660156" />
    <radialGradient
       inkscape:collect="always"
       xlink:href="#linearGradient3344"
       id="radialGradient2645"
       gradientUnits="userSpaceOnUse"
       gradientTransform="matrix(-1.3416319,-0.6538745,0.3230484,1.300757,2008.3864,245.3535)"
       cx="947.99762"
       cy="614.91156"
       fx="947.99762"
       fy="614.91156"
       r="69.041389" />
    <radialGradient
       inkscape:collect="always"
       xlink:href="#linearGradient3254"
       id="radialGradient2647"
       gradientUnits="userSpaceOnUse"
       gradientTransform="matrix(-1.4796314,0,0,1.7419518,2332.7211,-626.52823)"
       spreadMethod="pad"
       cx="969.97235"
       cy="591.58643"
       fx="969.97235"
       fy="591.58643"
       r="15.4031" />
    <linearGradient
       inkscape:collect="always"
       xlink:href="#linearGradient3392"
       id="linearGradient2649"
       gradientUnits="userSpaceOnUse"
       gradientTransform="matrix(-1.2693001,0,0,0.9975424,2130.6125,-183.09586)"
       x1="948.45645"
       y1="601.04522"
       x2="983.55188"
       y2="601.04522" />
    <radialGradient
       inkscape:collect="always"
       xlink:href="#linearGradient3306"
       id="radialGradient2651"
       gradientUnits="userSpaceOnUse"
       gradientTransform="matrix(-1.4796314,0,0,1.7419518,2332.2941,-625.14655)"
       spreadMethod="pad"
       cx="969.97235"
       cy="591.58643"
       fx="969.97235"
       fy="591.58643"
       r="15.4031" />
    <linearGradient
       inkscape:collect="always"
       xlink:href="#linearGradient3392"
       id="linearGradient2663"
       gradientUnits="userSpaceOnUse"
       gradientTransform="matrix(-1.6334066,0,0,0.9930531,1957.3645,-216.26044)"
       x1="948.45645"
       y1="601.04522"
       x2="983.55188"
       y2="601.04522" />
    <linearGradient
       inkscape:collect="always"
       xlink:href="#linearGradient3392"
       id="linearGradient2672"
       gradientUnits="userSpaceOnUse"
       gradientTransform="matrix(-1.6334066,0,0,0.9930531,1967.9509,-219.08029)"
       x1="948.45645"
       y1="601.04522"
       x2="983.55188"
       y2="601.04522" />
    <radialGradient
       inkscape:collect="always"
       xlink:href="#linearGradient3284"
       id="radialGradient2698"
       gradientUnits="userSpaceOnUse"
       gradientTransform="matrix(-1.3025683,-0.3520824,-0.2978999,1.1021137,2071.5752,98.476943)"
       cx="979.66461"
       cy="534.93903"
       fx="979.66461"
       fy="534.93903"
       r="59.07611" />
    <radialGradient
       inkscape:collect="always"
       xlink:href="#linearGradient3306"
       id="radialGradient2717"
       gradientUnits="userSpaceOnUse"
       gradientTransform="matrix(-0.9995026,0,0,0.7497184,889.2098,-89.758191)"
       cx="506.75427"
       cy="612.61304"
       fx="506.75427"
       fy="612.61304"
       r="75.660156" />
  </defs>
  <sodipodi:namedview
     inkscape:document-units="mm"
     pagecolor="#ffffff"
     bordercolor="#666666"
     borderopacity="1.0"
     inkscape:pageopacity="0.0"
     inkscape:pageshadow="2"
     inkscape:zoom="0.66312601"
     inkscape:cx="545.0464"
     inkscape:cy="519.49793"
     inkscape:current-layer="layer6"
     id="namedview2442"
     showgrid="false"
     inkscape:window-width="1439"
     inkscape:window-height="847"
     inkscape:window-x="0"
     inkscape:window-y="24"
     showguides="true"
     inkscape:guide-bbox="true">
    <sodipodi:guide
       orientation="0,1"
       position="358.7963,73.611111"
       id="guide2422" />
    <sodipodi:guide
       orientation="0,1"
       position="398.14815,267.12963"
       id="guide3262" />
    <sodipodi:guide
       orientation="0,1"
       position="858.6367,513.96409"
       id="guide3677" />
    <sodipodi:guide
       orientation="0,1"
       position="559.0273,460.37542"
       id="guide3679" />
    <sodipodi:guide
       orientation="0,1"
       position="393.08334,417.27309"
       id="guide2694" />
  </sodipodi:namedview>
  <metadata
     id="metadata2444">
    <rdf:RDF>
      <cc:Work
         rdf:about="">
        <dc:format>image/svg+xml</dc:format>
        <dc:type
           rdf:resource="http://purl.org/dc/dcmitype/StillImage" />
      </cc:Work>
    </rdf:RDF>
  </metadata>
  <g
     inkscape:groupmode="layer"
     id="layer2"
     inkscape:label="cadre"
     style="display:none"
     sodipodi:insensitive="true">
    <rect
       style="opacity:0.70689655;fill:#ffeeaa;fill-opacity:1;fill-rule:evenodd;stroke:#192438;stroke-width:1.39495802;stroke-linecap:butt;stroke-linejoin:miter;marker:none;marker-start:none;marker-mid:none;marker-end:none;stroke-miterlimit:4;stroke-dasharray:none;stroke-dashoffset:0;stroke-opacity:1;visibility:visible;display:inline;overflow:visible;enable-background:accumulate"
       id="rect3231"
       width="192.51822"
       height="192.51822"
       x="820.60193"
       y="284.57034" />
    <rect
       style="opacity:0.70689655;fill:#ffeeaa;fill-opacity:1;fill-rule:evenodd;stroke:#192438;stroke-width:1.39495802;stroke-linecap:butt;stroke-linejoin:miter;marker:none;marker-start:none;marker-mid:none;marker-end:none;stroke-miterlimit:4;stroke-dasharray:none;stroke-dashoffset:0;stroke-opacity:1;visibility:visible;display:inline;overflow:visible;enable-background:accumulate"
       id="rect2830"
       width="192.51822"
       height="192.51822"
       x="582.8772"
       y="284.66425" />
    <rect
       style="opacity:0.70689655;fill:#ffeeaa;fill-opacity:1;fill-rule:evenodd;stroke:#192438;stroke-width:1.39495802;stroke-linecap:butt;stroke-linejoin:miter;marker:none;marker-start:none;marker-mid:none;marker-end:none;stroke-miterlimit:4;stroke-dasharray:none;stroke-dashoffset:0;stroke-opacity:1;visibility:visible;display:inline;overflow:visible;enable-background:accumulate"
       id="rect2832"
       width="192.51822"
       height="192.51822"
       x="323.71829"
       y="285.66455" />
    <rect
       style="opacity:0.70689655;fill:#ffeeaa;fill-opacity:1;fill-rule:evenodd;stroke:#192438;stroke-width:1.39495802;stroke-linecap:butt;stroke-linejoin:miter;marker:none;marker-start:none;marker-mid:none;marker-end:none;stroke-miterlimit:4;stroke-dasharray:none;stroke-dashoffset:0;stroke-opacity:1;visibility:visible;display:inline;overflow:visible;enable-background:accumulate"
       id="rect2834"
       width="192.51822"
       height="192.51822"
       x="62.185593"
       y="284.66425" />
  </g>
  <g
     inkscape:groupmode="layer"
     id="layer7"
     inkscape:label="lignes"
     style="display:none"
     sodipodi:insensitive="true">
    <path
       style="fill:#ff0000;fill-rule:evenodd;stroke:#000000;stroke-width:1px;stroke-linecap:butt;stroke-linejoin:miter;stroke-opacity:1"
       d="M 1015.1773,476.45142 L 1013.8074,281.93088 C 1013.8074,281.93088 845.31424,309.32814 716.54711,298.36924 C 587.77999,287.41033 489.12566,260.45854 250.7937,264.12266 C 29.179137,267.52977 12.397052,287.00103 4.2183512,284.66426 L 5.5882142,478.18277 C 5.5882142,478.18277 320.65671,484.67059 406.95808,468.23224 C 493.25945,451.79388 605.58821,425.76649 698.7389,439.46512 C 791.88958,453.16375 939.83479,478.18277 963.12246,478.18277 C 986.41018,478.18277 1017.917,477.82128 1015.1773,476.45142 z"
       id="path2886"
       sodipodi:nodetypes="ccssccsssc" />
  </g>
  <g
     inkscape:groupmode="layer"
     id="layer8"
     inkscape:label="fond robe"
     style="display:inline">
    <path
       style="opacity:1;fill:url(#radialGradient2559);fill-opacity:1;fill-rule:evenodd;stroke:#214361;stroke-width:5.41417313;stroke-linecap:butt;stroke-linejoin:round;marker:none;marker-start:none;marker-mid:none;marker-end:none;stroke-miterlimit:4;stroke-dasharray:none;stroke-dashoffset:0;stroke-opacity:1;visibility:visible;display:inline;overflow:visible;enable-background:accumulate"
       d="M 450.97585,428.06718 C 423.54209,408.79944 368.47462,415.53991 307.25867,428.06718 C 351.99583,442.85384 400.22268,441.35523 450.97585,428.06718 z"
       id="path2665"
       sodipodi:nodetypes="ccc" />
  </g>
  <g
     inkscape:groupmode="layer"
     id="layer3"
     inkscape:label="jambe"
     style="display:inline">
    <path
       style="opacity:1;fill:url(#linearGradient3285);fill-opacity:1;fill-rule:evenodd;stroke:#a8613b;stroke-width:3.5007875;stroke-linecap:butt;stroke-linejoin:round;marker:none;marker-start:none;marker-mid:none;marker-end:none;stroke-miterlimit:4;stroke-dasharray:none;stroke-dashoffset:0;stroke-opacity:1;visibility:visible;display:inline;overflow:visible;enable-background:accumulate"
       d="M 160.7382,453.02909 C 168.35742,460.556 180.7741,463.6698 183.46666,476.18277 L 110.08871,477.08858 C 109.91402,471.53032 119.75727,457.87806 119.37901,452.0374 C 118.44374,437.37029 118.30535,421.12364 138.15726,420.44765 C 153.55748,419.92325 158.44424,426.97393 160.94474,431.48685 C 165.63608,439.95391 161.18174,444.00877 160.7382,453.02909 z"
       id="path3278"
       sodipodi:nodetypes="cccsssc"
       inkscape:export-filename="/home/laurence/programation/jeu video/sorlo/path3274.png"
       inkscape:export-xdpi="31"
       inkscape:export-ydpi="31" />
    <path
       style="opacity:1;fill:url(#linearGradient2672);fill-opacity:1;fill-rule:evenodd;stroke:#a8613b;stroke-width:3.5007875;stroke-linecap:butt;stroke-linejoin:round;marker:none;marker-start:none;marker-mid:none;marker-end:none;stroke-miterlimit:4;stroke-dasharray:none;stroke-dashoffset:0;stroke-opacity:1;visibility:visible;display:inline;overflow:visible;enable-background:accumulate"
       d="M 404.92949,425.59114 C 412.54871,433.11805 420.09369,456.93656 422.78625,469.44953 C 392.11101,457.65633 375.19422,434.44931 351.84415,432.59968 C 351.66946,427.04142 366.20589,415.25108 367.04556,411.84627 C 370.56455,397.57687 363.71456,383.94229 383.56647,383.2663 C 398.96669,382.7419 403.85345,389.79258 406.35395,394.3055 C 411.04529,402.77256 405.37303,416.57082 404.92949,425.59114 z"
       id="path2670"
       sodipodi:nodetypes="cccsssc"
       inkscape:export-filename="/home/laurence/programation/jeu video/sorlo/path3274.png"
       inkscape:export-xdpi="31"
       inkscape:export-ydpi="31" />
    <path
       style="opacity:1;fill:url(#linearGradient2663);fill-opacity:1;fill-rule:evenodd;stroke:#a8613b;stroke-width:3.5007875;stroke-linecap:butt;stroke-linejoin:round;marker:none;marker-start:none;marker-mid:none;marker-end:none;stroke-miterlimit:4;stroke-dasharray:none;stroke-dashoffset:0;stroke-opacity:1;visibility:visible;display:inline;overflow:visible;enable-background:accumulate"
       d="M 394.34315,428.41099 C 401.96237,435.9379 409.50735,459.75641 412.19991,472.26938 C 381.52467,460.47618 364.60788,437.26916 341.25781,435.41953 C 341.08312,429.86127 355.61955,418.07093 356.45922,414.66612 C 359.97821,400.39672 353.12822,386.76214 372.98013,386.08615 C 388.38035,385.56175 393.26711,392.61243 395.76761,397.12535 C 400.45895,405.59241 394.78669,419.39067 394.34315,428.41099 z"
       id="path2527"
       sodipodi:nodetypes="cccsssc"
       inkscape:export-filename="/home/laurence/programation/jeu video/sorlo/path3274.png"
       inkscape:export-xdpi="31"
       inkscape:export-ydpi="31" />
    <path
       style="opacity:1;fill:url(#linearGradient2591);fill-opacity:1;fill-rule:evenodd;stroke:#a8613b;stroke-width:3.5007875;stroke-linecap:butt;stroke-linejoin:round;marker:none;marker-start:none;marker-mid:none;marker-end:none;stroke-miterlimit:4;stroke-dasharray:none;stroke-dashoffset:0;stroke-opacity:1;visibility:visible;display:inline;overflow:visible;enable-background:accumulate"
       d="M 657.90936,452.90536 C 665.52858,460.43227 677.94526,463.54607 680.63782,476.05904 L 607.25987,476.96485 C 607.08518,471.40659 616.92843,457.75433 616.55017,451.91367 C 615.6149,437.24656 615.47651,420.99991 635.32842,420.32392 C 650.72864,419.79952 655.6154,426.8502 658.1159,431.36312 C 662.80724,439.83018 658.3529,443.88504 657.90936,452.90536 z"
       id="path2569"
       sodipodi:nodetypes="cccsssc"
       inkscape:export-filename="/home/laurence/programation/jeu video/sorlo/path3274.png"
       inkscape:export-xdpi="31"
       inkscape:export-ydpi="31" />
  </g>
  <g
     inkscape:groupmode="layer"
     id="layer6"
     inkscape:label="baton"
     style="display:inline">
    <path
       style="fill:url(#radialGradient3352);fill-opacity:1;fill-rule:evenodd;stroke:#41211e;stroke-width:4.54476357;stroke-linecap:butt;stroke-linejoin:round;stroke-miterlimit:4;stroke-dasharray:none;stroke-opacity:1"
       d="M 241.73048,367.21634 C 249.05651,369.01113 253.509,379.48392 251.81729,385.36027 C 207.10729,410.45589 168.94373,438.69901 119.70065,464.97365 C 113.69488,463.93964 114.64711,460.2271 114.02878,457.05415 C 154.19001,433.62476 210.42399,391.74697 241.73048,367.21634 z"
       id="path3282"
       sodipodi:nodetypes="ccccc"
       inkscape:export-filename="/home/laurence/programation/jeu video/sorlo/path3274.png"
       inkscape:export-xdpi="31"
       inkscape:export-ydpi="31" />
    <path
       style="fill:url(#radialGradient2561);fill-opacity:1;fill-rule:evenodd;stroke:#41211e;stroke-width:4.54476357;stroke-linecap:butt;stroke-linejoin:round;stroke-miterlimit:4;stroke-dasharray:none;stroke-opacity:1;display:inline"
       d="M 436.69087,172.61053 C 443.87916,170.32568 453.13588,176.94512 454.75345,182.8423 C 429.66539,227.55656 411.80495,271.54674 383.46191,319.62905 C 377.79689,321.87542 376.67549,318.21045 374.49461,315.82428 C 396.56811,274.90215 422.74918,209.85937 436.69087,172.61053 z"
       id="path2541"
       sodipodi:nodetypes="ccccc"
       inkscape:export-filename="/home/laurence/programation/jeu video/sorlo/path3274.png"
       inkscape:export-xdpi="31"
       inkscape:export-ydpi="31" />
    <path
       style="fill:url(#radialGradient2603);fill-opacity:1;fill-rule:evenodd;stroke:#41211e;stroke-width:4.54476357;stroke-linecap:butt;stroke-linejoin:round;stroke-miterlimit:4;stroke-dasharray:none;stroke-opacity:1;display:inline"
       d="M 665.35988,320.11665 C 671.12109,315.24833 682.20926,317.80891 685.96593,322.63391 C 679.95688,373.55214 680.34427,421.02825 672.62184,476.30575 C 668.25254,480.55399 665.8106,477.59992 662.88103,476.23331 C 667.56147,429.97367 666.77914,359.86377 665.35988,320.11665 z"
       id="path2583"
       sodipodi:nodetypes="ccccc"
       inkscape:export-filename="/home/laurence/programation/jeu video/sorlo/path3274.png"
       inkscape:export-xdpi="31"
       inkscape:export-ydpi="31" />
  </g>
  <g
     inkscape:groupmode="layer"
     id="layer5"
     inkscape:label="tête"
     style="display:inline">
    <path
       style="opacity:1;fill:url(#radialGradient2476);fill-opacity:1;fill-rule:evenodd;stroke:#192438;stroke-width:3.01181102;stroke-linecap:butt;stroke-linejoin:round;marker:none;marker-start:none;marker-mid:none;marker-end:none;stroke-miterlimit:4;stroke-dasharray:none;stroke-dashoffset:0;stroke-opacity:1;visibility:visible;display:inline;overflow:visible;enable-background:accumulate"
       d="M 242.84615,307.29818 C 194.24344,309.46795 111.58315,369.22752 81.384671,408.49006 C 100.42676,408.67659 208.70627,354.57514 242.84615,307.29818 z"
       id="path3272"
       sodipodi:nodetypes="ccc"
       inkscape:export-filename="/home/laurence/programation/jeu video/sorlo/path3274.png"
       inkscape:export-xdpi="31"
       inkscape:export-ydpi="31" />
    <path
       style="opacity:1;fill:url(#linearGradient2478);fill-opacity:1;fill-rule:evenodd;stroke:#a8613b;stroke-width:4.05481339;stroke-linecap:butt;stroke-linejoin:round;marker:none;marker-start:none;marker-mid:none;marker-end:none;stroke-miterlimit:4;stroke-dasharray:none;stroke-dashoffset:0;stroke-opacity:1;visibility:visible;display:inline;overflow:visible;enable-background:accumulate"
       d="M 173.9894,307.10993 C 161.68645,295.85492 133.86462,296.55925 121.76786,309.49761 C 109.59706,322.51519 108.17624,337.39527 112.9273,347.10967 C 125.93018,373.69642 173.69877,386.23741 184.39555,378.59792 C 188.38455,375.74903 191.2628,366.10505 191.67774,361.81793 C 208.33094,352.98148 195.78266,344.41325 191.57033,343.67814 C 192.05817,336.5311 184.01231,312.78803 173.9894,307.10993 z"
       id="path2492"
       sodipodi:nodetypes="csssccc"
       inkscape:export-filename="/home/laurence/programation/jeu video/sorlo/path3274.png"
       inkscape:export-xdpi="31"
       inkscape:export-ydpi="31" />
    <path
       style="opacity:1;fill:url(#radialGradient3290);fill-opacity:1;fill-rule:evenodd;stroke:#192438;stroke-width:5.86541891;stroke-linecap:butt;stroke-linejoin:round;stroke-miterlimit:4;stroke-dasharray:none;stroke-opacity:1"
       d="M 240.34928,306.22597 C 204.25439,312.15926 146.1708,339.60184 81.927271,407.29723 C 90.906121,395.93432 96.575521,369.99823 109.68588,351.11671 L 105.07356,332.45641 C 88.824621,353.78835 88.889621,367.704 76.419471,381.99104 C 72.740301,381.04376 70.487301,378.93149 66.529901,374.35465 C 95.321401,332.94998 79.939971,302.5783 108.1269,286.4423 C 159.59056,291.27425 164.55866,298.84617 186.03591,306.4468 C 200.4459,304.95695 217.05314,304.31601 240.34928,306.22597 z"
       id="path3270"
       sodipodi:nodetypes="ccccccccc"
       inkscape:export-filename="/home/laurence/programation/jeu video/sorlo/path3274.png"
       inkscape:export-xdpi="31"
       inkscape:export-ydpi="31" />
    <path
       sodipodi:type="arc"
       style="opacity:1;fill:url(#radialGradient3266);fill-opacity:1;fill-rule:evenodd;stroke:#0f1c29;stroke-width:0.97015876;stroke-linecap:butt;stroke-linejoin:miter;marker:none;marker-start:none;marker-mid:none;marker-end:none;stroke-miterlimit:4;stroke-dasharray:none;stroke-dashoffset:0;stroke-opacity:1;visibility:visible;display:inline;overflow:visible;enable-background:accumulate"
       id="path3264"
       sodipodi:cx="950.22156"
       sodipodi:cy="533.15167"
       sodipodi:rx="2.2843432"
       sodipodi:ry="3.9160171"
       d="M 952.5059,533.15167 A 2.2843432,3.9160171 0 1 1 947.93721,533.15167 A 2.2843432,3.9160171 0 1 1 952.5059,533.15167 z"
       transform="matrix(-2.7097005,0.352797,0.2574098,2.1500158,2616.9308,-1136.8461)"
       inkscape:export-filename="/home/laurence/programation/jeu video/sorlo/path3274.png"
       inkscape:export-xdpi="31"
       inkscape:export-ydpi="31" />
    <path
       style="fill:none;fill-opacity:1;fill-rule:evenodd;stroke:#a8613b;stroke-width:3.13228345;stroke-linecap:butt;stroke-linejoin:miter;stroke-miterlimit:4;stroke-dasharray:none;stroke-opacity:1"
       d="M 187.98223,368.46876 C 184.71888,368.9909 178.45326,365.72755 178.45326,365.72755 C 180.80022,368.47273 183.85131,370.16172 187.59063,370.81837 L 187.98223,368.46876 z"
       id="path3268"
       sodipodi:nodetypes="cccc"
       inkscape:export-filename="/home/laurence/programation/jeu video/sorlo/path3274.png"
       inkscape:export-xdpi="31"
       inkscape:export-ydpi="31" />
    <path
       style="opacity:1;fill:url(#radialGradient2551);fill-opacity:1;fill-rule:evenodd;stroke:#192438;stroke-width:3.01181102;stroke-linecap:butt;stroke-linejoin:round;marker:none;marker-start:none;marker-mid:none;marker-end:none;stroke-miterlimit:4;stroke-dasharray:none;stroke-dashoffset:0;stroke-opacity:1;visibility:visible;display:inline;overflow:visible;enable-background:accumulate"
       d="M 467.60536,220.13928 C 419.31975,226.09173 330.83336,289.93464 303.78789,331.43208 C 341.85873,352.03899 449.86941,296.11833 467.60536,220.13928 z"
       id="path2529"
       sodipodi:nodetypes="ccc"
       inkscape:export-filename="/home/laurence/programation/jeu video/sorlo/path3274.png"
       inkscape:export-xdpi="31"
       inkscape:export-ydpi="31" />
    <path
       style="opacity:1;fill:url(#linearGradient2553);fill-opacity:1;fill-rule:evenodd;stroke:#a8613b;stroke-width:4.05481339;stroke-linecap:butt;stroke-linejoin:round;marker:none;marker-start:none;marker-mid:none;marker-end:none;stroke-miterlimit:4;stroke-dasharray:none;stroke-dashoffset:0;stroke-opacity:1;visibility:visible;display:inline;overflow:visible;enable-background:accumulate"
       d="M 410.87097,254.9862 C 398.56802,243.73119 370.74619,244.43552 358.64943,257.37388 C 346.47863,270.39146 345.05781,285.27154 349.80887,294.98594 C 362.81175,321.57269 410.58034,334.11368 421.27712,326.47419 C 425.26612,323.6253 428.14437,313.98132 428.55931,309.6942 C 445.21251,300.85775 432.66423,292.28952 428.4519,291.55441 C 428.93974,284.40737 420.89388,260.6643 410.87097,254.9862 z"
       id="path2531"
       sodipodi:nodetypes="csssccc"
       inkscape:export-filename="/home/laurence/programation/jeu video/sorlo/path3274.png"
       inkscape:export-xdpi="31"
       inkscape:export-ydpi="31" />
    <path
       sodipodi:type="arc"
       style="opacity:1;fill:url(#radialGradient2557);fill-opacity:1;fill-rule:evenodd;stroke:#0f1c29;stroke-width:0.97015876;stroke-linecap:butt;stroke-linejoin:miter;marker:none;marker-start:none;marker-mid:none;marker-end:none;stroke-miterlimit:4;stroke-dasharray:none;stroke-dashoffset:0;stroke-opacity:1;visibility:visible;display:inline;overflow:visible;enable-background:accumulate"
       id="path2535"
       sodipodi:cx="950.22156"
       sodipodi:cy="533.15167"
       sodipodi:rx="2.2843432"
       sodipodi:ry="3.9160171"
       d="M 952.5059,533.15167 A 2.2843432,3.9160171 0 1 1 947.93721,533.15167 A 2.2843432,3.9160171 0 1 1 952.5059,533.15167 z"
       transform="matrix(-2.7097005,0.352797,0.2574098,2.1500158,2853.8123,-1188.9698)"
       inkscape:export-filename="/home/laurence/programation/jeu video/sorlo/path3274.png"
       inkscape:export-xdpi="31"
       inkscape:export-ydpi="31" />
    <path
       style="opacity:1;fill:url(#radialGradient2555);fill-opacity:1;fill-rule:evenodd;stroke:#192438;stroke-width:5.86541891;stroke-linecap:butt;stroke-linejoin:round;stroke-miterlimit:4;stroke-dasharray:none;stroke-opacity:1;display:inline"
       d="M 465.72399,218.45617 C 443.44847,251.81085 339.45363,332.26 304.96678,329.89619 C 313.0324,317.86783 328.53311,308.24669 340.13148,288.4005 L 334.07836,270.1566 C 313.562,264.47785 282.4975,223.50482 275.52535,207.43625 C 271.78353,206.7787 275.85796,199.25333 281.39795,197.05306 C 308.16805,218.33641 306.49089,220.45712 333.53493,224.04449 C 385.21866,224.8494 390.76198,232.01093 412.76644,237.91396 C 425.98542,241.42375 437.52188,233.84073 465.72399,218.45617 z"
       id="path2533"
       sodipodi:nodetypes="ccccccccc"
       inkscape:export-filename="/home/laurence/programation/jeu video/sorlo/path3274.png"
       inkscape:export-xdpi="31"
       inkscape:export-ydpi="31" />
    <path
       style="fill:none;fill-opacity:1;fill-rule:evenodd;stroke:#a8613b;stroke-width:3.13228345;stroke-linecap:butt;stroke-linejoin:miter;stroke-miterlimit:4;stroke-dasharray:none;stroke-opacity:1;display:inline"
       d="M 426.99819,313.60082 C 423.73484,314.12296 417.16431,315.73821 417.16431,315.73821 C 419.51127,318.48339 421.34271,320.17238 425.08203,320.82903 L 426.99819,313.60082 z"
       id="path2537"
       sodipodi:nodetypes="cccc"
       inkscape:export-filename="/home/laurence/programation/jeu video/sorlo/path3274.png"
       inkscape:export-xdpi="31"
       inkscape:export-ydpi="31" />
    <path
       style="opacity:1;fill:url(#radialGradient2593);fill-opacity:1;fill-rule:evenodd;stroke:#192438;stroke-width:3.01181102;stroke-linecap:butt;stroke-linejoin:round;marker:none;marker-start:none;marker-mid:none;marker-end:none;stroke-miterlimit:4;stroke-dasharray:none;stroke-dashoffset:0;stroke-opacity:1;visibility:visible;display:inline;overflow:visible;enable-background:accumulate"
       d="M 737.2034,292.22617 C 680.93171,339.55133 644.26231,370.36864 574.6756,395.01754 C 601.18195,409.06627 713.72676,381.6229 737.2034,292.22617 z"
       id="path2571"
       sodipodi:nodetypes="ccc"
       inkscape:export-filename="/home/laurence/programation/jeu video/sorlo/path3274.png"
       inkscape:export-xdpi="31"
       inkscape:export-ydpi="31" />
    <path
       style="opacity:1;fill:url(#linearGradient2595);fill-opacity:1;fill-rule:evenodd;stroke:#a8613b;stroke-width:4.05481339;stroke-linecap:butt;stroke-linejoin:round;marker:none;marker-start:none;marker-mid:none;marker-end:none;stroke-miterlimit:4;stroke-dasharray:none;stroke-dashoffset:0;stroke-opacity:1;visibility:visible;display:inline;overflow:visible;enable-background:accumulate"
       d="M 676.34408,313.89755 C 664.04113,302.64254 636.2193,303.34687 624.12254,316.28523 C 611.95174,329.30281 610.53092,344.18289 615.28198,353.89729 C 628.28486,380.48404 676.05345,393.02503 686.75023,385.38554 C 690.73923,382.53665 693.61748,372.89267 694.03242,368.60555 C 710.68562,359.7691 698.13734,351.20087 693.92501,350.46576 C 694.41285,343.31872 686.36699,319.57565 676.34408,313.89755 z"
       id="path2573"
       sodipodi:nodetypes="csssccc"
       inkscape:export-filename="/home/laurence/programation/jeu video/sorlo/path3274.png"
       inkscape:export-xdpi="31"
       inkscape:export-ydpi="31" />
    <path
       sodipodi:type="arc"
       style="opacity:1;fill:url(#radialGradient2599);fill-opacity:1;fill-rule:evenodd;stroke:#0f1c29;stroke-width:0.97015876;stroke-linecap:butt;stroke-linejoin:miter;marker:none;marker-start:none;marker-mid:none;marker-end:none;stroke-miterlimit:4;stroke-dasharray:none;stroke-dashoffset:0;stroke-opacity:1;visibility:visible;display:inline;overflow:visible;enable-background:accumulate"
       id="path2577"
       sodipodi:cx="950.22156"
       sodipodi:cy="533.15167"
       sodipodi:rx="2.2843432"
       sodipodi:ry="3.9160171"
       d="M 952.5059,533.15167 A 2.2843432,3.9160171 0 1 1 947.93721,533.15167 A 2.2843432,3.9160171 0 1 1 952.5059,533.15167 z"
       transform="matrix(-2.7097005,0.352797,0.2574098,2.1500158,3119.2855,-1130.0584)"
       inkscape:export-filename="/home/laurence/programation/jeu video/sorlo/path3274.png"
       inkscape:export-xdpi="31"
       inkscape:export-ydpi="31" />
    <path
       style="fill:none;fill-opacity:1;fill-rule:evenodd;stroke:#a8613b;stroke-width:3.13228345;stroke-linecap:butt;stroke-linejoin:miter;stroke-miterlimit:4;stroke-dasharray:none;stroke-opacity:1;display:inline"
       d="M 690.33691,375.25638 C 687.07356,375.77852 680.80794,372.51517 680.80794,372.51517 C 683.1549,375.26035 686.20599,376.94934 689.94531,377.60599 L 690.33691,375.25638 z"
       id="path2579"
       sodipodi:nodetypes="cccc"
       inkscape:export-filename="/home/laurence/programation/jeu video/sorlo/path3274.png"
       inkscape:export-xdpi="31"
       inkscape:export-ydpi="31" />
  </g>
  <g
     inkscape:label="corps"
     inkscape:groupmode="layer"
     id="layer1"
     style="display:inline">
    <path
       style="opacity:1;fill:url(#radialGradient3280);fill-opacity:1;fill-rule:evenodd;stroke:#214361;stroke-width:5.41417313;stroke-linecap:butt;stroke-linejoin:round;marker:none;marker-start:none;marker-mid:none;marker-end:none;stroke-miterlimit:4;stroke-dasharray:none;stroke-dashoffset:0;stroke-opacity:1;visibility:visible;display:inline;overflow:visible;enable-background:accumulate"
       d="M 174.31648,383.30316 C 160.9025,383.85686 140.29991,375.48106 131.76043,367.67513 C 104.05329,393.48277 98.097391,429.89142 67.873701,473.40072 C 92.685621,478.36132 202.95865,475.8953 218.77822,472.76195 C 208.6154,442.39636 195.79027,404.07309 174.31648,383.30316 z"
       id="path3354"
       sodipodi:nodetypes="ccccc"
       inkscape:export-filename="/home/laurence/programation/jeu video/sorlo/path3274.png"
       inkscape:export-xdpi="31"
       inkscape:export-ydpi="31" />
    <path
       style="opacity:1;fill:url(#radialGradient2717);fill-opacity:1;fill-rule:evenodd;stroke:#214361;stroke-width:5.41417313;stroke-linecap:butt;stroke-linejoin:round;marker:none;marker-start:none;marker-mid:none;marker-end:none;stroke-miterlimit:4;stroke-dasharray:none;stroke-dashoffset:0;stroke-opacity:1;visibility:visible;display:inline;overflow:visible;enable-background:accumulate"
       d="M 411.19805,331.17943 C 397.78407,331.73313 377.18148,323.35733 368.642,315.5514 C 340.93486,341.35904 338.63273,398.4724 308.40904,428.58454 C 333.22096,433.54514 403.30249,401.84893 450.78809,426.72784 C 428.44603,400.01603 432.67184,351.94936 411.19805,331.17943 z"
       id="path2539"
       sodipodi:nodetypes="ccccc"
       inkscape:export-filename="/home/laurence/programation/jeu video/sorlo/path3274.png"
       inkscape:export-xdpi="31"
       inkscape:export-ydpi="31" />
    <path
       style="opacity:1;fill:url(#radialGradient2601);fill-opacity:1;fill-rule:evenodd;stroke:#214361;stroke-width:5.41417313;stroke-linecap:butt;stroke-linejoin:round;marker:none;marker-start:none;marker-mid:none;marker-end:none;stroke-miterlimit:4;stroke-dasharray:none;stroke-dashoffset:0;stroke-opacity:1;visibility:visible;display:inline;overflow:visible;enable-background:accumulate"
       d="M 676.2861,390.17187 C 662.33895,388.59292 641.2032,383.35476 632.66372,375.54883 C 609.74641,386.85316 592.71281,428.66816 597.99858,447.29861 C 602.26407,462.33294 609.21402,465.65112 591.16978,475.9428 C 620.78015,479.83707 700.12981,480.0982 720.74784,476.43169 C 703.93687,458.31651 715.60697,465.01582 714.75472,448.69729 C 713.32534,421.32821 688.62248,418.68433 676.2861,390.17187 z"
       id="path2581"
       sodipodi:nodetypes="ccsccsc"
       inkscape:export-filename="/home/laurence/programation/jeu video/sorlo/path3274.png"
       inkscape:export-xdpi="31"
       inkscape:export-ydpi="31" />
  </g>
  <g
     inkscape:groupmode="layer"
     id="layer9"
     inkscape:label="chapeau"
     style="display:inline">
    <path
       style="opacity:1;fill:url(#radialGradient2698);fill-opacity:1;fill-rule:evenodd;stroke:#192438;stroke-width:5.86541891;stroke-linecap:butt;stroke-linejoin:round;stroke-miterlimit:4;stroke-dasharray:none;stroke-opacity:1;display:inline"
       d="M 735.23969,291.15396 C 712.82011,346.21219 613.88468,400.67944 576.28452,394.35786 C 591.5417,388.06868 606.25011,387.56195 615.77269,361.1033 C 610.37261,357.64222 609.39211,344.3217 608.49456,337.64454 C 589.04665,348.31325 570.45099,356.36412 554.24871,351.9905 C 550.56954,351.04322 550.44918,345.19882 551.29024,337.95617 C 594.47711,329.60752 582.82781,314.69753 611.01474,298.56153 C 666.74369,298.06187 663.1812,300.83533 683.59213,313.23442 C 699.60161,317.07618 710.34407,304.70568 735.23969,291.15396 z"
       id="path2575"
       sodipodi:nodetypes="ccccccccc"
       inkscape:export-filename="/home/laurence/programation/jeu video/sorlo/path3274.png"
       inkscape:export-xdpi="31"
       inkscape:export-ydpi="31" />
  </g>
  <g
     inkscape:groupmode="layer"
     id="layer4"
     inkscape:label="bras"
     style="display:inline">
    <path
       style="opacity:1;fill:url(#radialGradient3260);fill-opacity:1;fill-rule:evenodd;stroke:#214361;stroke-width:2.71417332;stroke-linecap:butt;stroke-linejoin:bevel;marker:none;marker-start:none;marker-mid:none;marker-end:none;stroke-miterlimit:4;stroke-dasharray:none;stroke-dashoffset:0;stroke-opacity:1;visibility:visible;display:inline;overflow:visible;enable-background:accumulate"
       d="M 161.68969,414.41838 C 148.02763,414.75141 119.1507,434.92948 114.9194,444.91047 C 132.80839,445.19083 157.96672,419.50502 161.68969,414.41838 z"
       id="path3252"
       sodipodi:nodetypes="ccc"
       inkscape:export-filename="/home/laurence/programation/jeu video/sorlo/path3274.png"
       inkscape:export-xdpi="31"
       inkscape:export-ydpi="31" />
    <path
       style="opacity:1;fill:url(#linearGradient3398);fill-opacity:1;fill-rule:evenodd;stroke:#a8613b;stroke-width:3.29881883;stroke-linecap:butt;stroke-linejoin:round;marker:none;marker-start:none;marker-mid:none;marker-end:none;stroke-miterlimit:4;stroke-dasharray:none;stroke-dashoffset:0;stroke-opacity:1;visibility:visible;display:inline;overflow:visible;enable-background:accumulate"
       d="M 152.74939,395.77227 C 151.14065,411.28719 152.50744,408.69766 156.25627,418.39474 C 159.9439,421.50358 161.2506,422.17843 164.18537,425.28728 C 169.03628,427.06402 170.36923,436.66226 164.13057,436.52462 C 166.51778,444.96572 157.25249,456.18767 139.70077,451.67835 C 130.39503,449.28755 127.01932,437.59375 126.84667,431.67937 C 117.82891,421.02985 112.84264,413.9757 120.5437,391.86293 C 129.14557,380.63191 146.79666,384.33471 152.74939,395.77227 z"
       id="path3276"
       sodipodi:nodetypes="ccccsccc"
       inkscape:export-filename="/home/laurence/programation/jeu video/sorlo/path3274.png"
       inkscape:export-xdpi="31"
       inkscape:export-ydpi="31" />
    <path
       style="opacity:1;fill:url(#radialGradient3312);fill-opacity:1;fill-rule:evenodd;stroke:#214361;stroke-width:5.19448805;stroke-linecap:butt;stroke-linejoin:round;marker:none;marker-start:none;marker-mid:none;marker-end:none;stroke-miterlimit:4;stroke-dasharray:none;stroke-dashoffset:0;stroke-opacity:1;visibility:visible;display:inline;overflow:visible;enable-background:accumulate"
       d="M 152.83763,393.6933 C 152.4212,406.8834 156.25721,407.82626 159.96975,414.68813 C 134.15291,424.43053 122.59116,432.52476 115.60684,442.3663 C 111.10547,427.64787 110.46054,404.22658 121.15618,388.78942 C 125.53875,381.103 143.27687,376.67723 152.83763,393.6933 z"
       id="path3274"
       sodipodi:nodetypes="ccccc"
       inkscape:export-xdpi="31"
       inkscape:export-ydpi="31" />
    <path
       style="opacity:1;fill:url(#radialGradient2563);fill-opacity:1;fill-rule:evenodd;stroke:#214361;stroke-width:2.71417332;stroke-linecap:butt;stroke-linejoin:bevel;marker:none;marker-start:none;marker-mid:none;marker-end:none;stroke-miterlimit:4;stroke-dasharray:none;stroke-dashoffset:0;stroke-opacity:1;visibility:visible;display:inline;overflow:visible;enable-background:accumulate"
       d="M 355.58328,309.15677 C 365.9037,320.28912 403.13524,327.28381 412.93556,318.00519 C 397.94263,308.24265 361.44304,306.8335 355.58328,309.15677 z"
       id="path2543"
       sodipodi:nodetypes="ccc"
       inkscape:export-filename="/home/laurence/programation/jeu video/sorlo/path3274.png"
       inkscape:export-xdpi="31"
       inkscape:export-ydpi="31" />
    <path
       style="opacity:1;fill:url(#linearGradient2565);fill-opacity:1;fill-rule:evenodd;stroke:#a8613b;stroke-width:3.29881883;stroke-linecap:butt;stroke-linejoin:round;marker:none;marker-start:none;marker-mid:none;marker-end:none;stroke-miterlimit:4;stroke-dasharray:none;stroke-dashoffset:0;stroke-opacity:1;visibility:visible;display:inline;overflow:visible;enable-background:accumulate"
       d="M 361.93425,325.68962 C 369.73072,334.71629 372.25248,310.80153 374.24258,300.59727 C 372.55016,291.98532 380.52972,276.83405 384.88726,273.48209 C 401.33964,258.06467 398.12561,271.06429 396.16229,275.89962 C 406.22734,283.17488 408.99981,265.27408 412.72599,275.55536 C 420.21023,296.20584 408.59162,303.64857 402.5195,310.91583 C 394.80627,329.60431 405.40611,331.53003 387.11333,346.14697 C 373.85216,351.07336 360.88291,338.54058 361.93425,325.68962 z"
       id="path2545"
       sodipodi:nodetypes="ccccsccc"
       inkscape:export-filename="/home/laurence/programation/jeu video/sorlo/path3274.png"
       inkscape:export-xdpi="31"
       inkscape:export-ydpi="31" />
    <path
       style="opacity:1;fill:url(#radialGradient2567);fill-opacity:1;fill-rule:evenodd;stroke:#214361;stroke-width:5.19448805;stroke-linecap:butt;stroke-linejoin:round;marker:none;marker-start:none;marker-mid:none;marker-end:none;stroke-miterlimit:4;stroke-dasharray:none;stroke-dashoffset:0;stroke-opacity:1;visibility:visible;display:inline;overflow:visible;enable-background:accumulate"
       d="M 357.53017,333.42842 C 364.99934,323.18425 353.08365,317.3977 353.59485,309.61267 C 383.1025,329.93146 397.32355,327.92468 412.08432,318.93612 C 395.77509,332.82854 408.7275,347.98672 385.59941,360.26954 C 373.99587,362.31319 357.52125,360.0915 357.53017,333.42842 z"
       id="path2547"
       sodipodi:nodetypes="ccccc"
       inkscape:export-xdpi="31"
       inkscape:export-ydpi="31" />
    <path
       style="opacity:1;fill:url(#radialGradient2605);fill-opacity:1;fill-rule:evenodd;stroke:#214361;stroke-width:2.71417332;stroke-linecap:butt;stroke-linejoin:bevel;marker:none;marker-start:none;marker-mid:none;marker-end:none;stroke-miterlimit:4;stroke-dasharray:none;stroke-dashoffset:0;stroke-opacity:1;visibility:visible;display:inline;overflow:visible;enable-background:accumulate"
       d="M 670.77164,392.71808 C 659.88236,400.97557 648.25137,434.22841 650.65375,444.79973 C 665.33094,434.56867 670.72504,399.02144 670.77164,392.71808 z"
       id="path2585"
       sodipodi:nodetypes="ccc"
       inkscape:export-filename="/home/laurence/programation/jeu video/sorlo/path3274.png"
       inkscape:export-xdpi="31"
       inkscape:export-ydpi="31" />
    <path
       style="opacity:1;fill:url(#linearGradient2607);fill-opacity:1;fill-rule:evenodd;stroke:#a8613b;stroke-width:3.29881883;stroke-linecap:butt;stroke-linejoin:round;marker:none;marker-start:none;marker-mid:none;marker-end:none;stroke-miterlimit:4;stroke-dasharray:none;stroke-dashoffset:0;stroke-opacity:1;visibility:visible;display:inline;overflow:visible;enable-background:accumulate"
       d="M 646.65456,386.15759 C 657.31535,397.5439 648.64391,398.80954 658.42399,402.33615 C 663.18912,401.58972 664.55537,401.04544 668.82692,400.86752 C 673.34879,398.36937 681.47041,403.65542 677.27643,408.27607 C 685.21545,412.00742 687.61497,426.36082 672.70307,436.65803 C 664.79694,442.11748 653.75372,437.00009 649.17451,433.25301 C 635.22092,433.08064 621.4432,419.92913 620.46636,405.2931 C 617.62506,391.43469 634.11535,383.15413 646.65456,386.15759 z"
       id="path2587"
       sodipodi:nodetypes="ccccsccc"
       inkscape:export-filename="/home/laurence/programation/jeu video/sorlo/path3274.png"
       inkscape:export-xdpi="31"
       inkscape:export-ydpi="31" />
    <path
       style="opacity:1;fill:url(#radialGradient2609);fill-opacity:1;fill-rule:evenodd;stroke:#214361;stroke-width:5.19448805;stroke-linecap:butt;stroke-linejoin:round;marker:none;marker-start:none;marker-mid:none;marker-end:none;stroke-miterlimit:4;stroke-dasharray:none;stroke-dashoffset:0;stroke-opacity:1;visibility:visible;display:inline;overflow:visible;enable-background:accumulate"
       d="M 646.88436,384.7274 C 652.75407,398.4377 661.68607,389.76347 668.78388,393.00218 C 654.0523,416.33465 649.70345,429.76141 650.06048,441.82413 C 628.92537,435.47625 615.79611,425.72278 617.08723,403.33831 C 615.95264,394.56331 629.00037,376.90961 646.88436,384.7274 z"
       id="path2589"
       sodipodi:nodetypes="ccccc"
       inkscape:export-xdpi="31"
       inkscape:export-ydpi="31" />
  </g>
</svg>
